EESchema Schematic File Version 4
EELAYER 30 0
EELAYER END
$Descr A4 11693 8268
encoding utf-8
Sheet 1 1
Title "Weather Statuion Kit connectors"
Date "2021-10-31"
Rev "0.0.0"
Comp ""
Comment1 "https://gitlab.com/goblinrieur/WSKS"
Comment2 "goblinrieur@gmail.com"
Comment3 ""
Comment4 ""
$EndDescr
$Comp
L PERSO:ESP8266-MOD U1
U 1 1 617F45BF
P 4650 5150
F 0 "U1" H 4650 5225 50  0000 C CNN
F 1 "ESP8266-MOD-12E" H 4650 5134 50  0000 C CNN
F 2 "PERSO:ESP8266-MOD" H 4650 5150 50  0001 C CNN
F 3 "" H 4650 5150 50  0001 C CNN
	1    4650 5150
	1    0    0    -1  
$EndComp
$Comp
L Connector:Conn_01x04_Female J2
U 1 1 617F6594
P 4200 1300
F 0 "J2" H 4228 1276 50  0000 L CNN
F 1 "OLED" H 4228 1185 50  0000 L CNN
F 2 "Connector_PinSocket_2.54mm:PinSocket_1x04_P2.54mm_Vertical" H 4200 1300 50  0001 C CNN
F 3 "~" H 4200 1300 50  0001 C CNN
	1    4200 1300
	1    0    0    -1  
$EndComp
$Comp
L Connector:Conn_01x03_Female J3
U 1 1 617F7C06
P 4200 2900
F 0 "J3" H 4228 2926 50  0000 L CNN
F 1 "DHT11(22)_3pins" H 4228 2835 50  0000 L CNN
F 2 "Connector_PinSocket_2.54mm:PinSocket_1x03_P2.54mm_Vertical" H 4200 2900 50  0001 C CNN
F 3 "~" H 4200 2900 50  0001 C CNN
	1    4200 2900
	1    0    0    -1  
$EndComp
$Comp
L Connector:Conn_01x04_Female J4
U 1 1 617F9ABA
P 6200 1300
F 0 "J4" H 6228 1276 50  0000 L CNN
F 1 "BMP180" H 6228 1185 50  0000 L CNN
F 2 "Connector_PinSocket_2.54mm:PinSocket_1x04_P2.54mm_Vertical" H 6200 1300 50  0001 C CNN
F 3 "~" H 6200 1300 50  0001 C CNN
	1    6200 1300
	1    0    0    -1  
$EndComp
$Comp
L Connector:Conn_01x04_Female J6
U 1 1 617FCE73
P 8200 1300
F 0 "J6" H 8228 1276 50  0000 L CNN
F 1 "mq sensor" H 8228 1185 50  0000 L CNN
F 2 "Connector_PinSocket_2.54mm:PinSocket_1x04_P2.54mm_Vertical" H 8200 1300 50  0001 C CNN
F 3 "~" H 8200 1300 50  0001 C CNN
	1    8200 1300
	1    0    0    -1  
$EndComp
$Comp
L Switch:SW_SPDT SW1
U 1 1 618018CF
P 2800 6300
F 0 "SW1" H 2800 5975 50  0000 C CNN
F 1 "on/off" H 2800 6066 50  0000 C CNN
F 2 "Connector_PinHeader_2.54mm:PinHeader_1x03_P2.54mm_Vertical" H 2800 6300 50  0001 C CNN
F 3 "~" H 2800 6300 50  0001 C CNN
	1    2800 6300
	-1   0    0    1   
$EndComp
$Comp
L Connector:Conn_01x02_Male J1
U 1 1 61804370
P 1900 6200
F 0 "J1" H 2008 6381 50  0000 C CNN
F 1 "3.3power" H 2008 6290 50  0000 C CNN
F 2 "Connector_PinHeader_2.54mm:PinHeader_1x02_P2.54mm_Vertical" H 1900 6200 50  0001 C CNN
F 3 "~" H 1900 6200 50  0001 C CNN
	1    1900 6200
	1    0    0    -1  
$EndComp
NoConn ~ 2600 6400
Wire Wire Line
	4100 6300 3650 6300
Wire Wire Line
	2600 6200 2100 6200
Wire Wire Line
	2100 6300 2350 6300
Wire Wire Line
	2350 6300 2350 6600
Wire Wire Line
	2350 6600 3200 6600
$Comp
L power:VCC #PWR01
U 1 1 6180C9E9
P 3200 6150
F 0 "#PWR01" H 3200 6000 50  0001 C CNN
F 1 "VCC" H 3215 6323 50  0000 C CNN
F 2 "" H 3200 6150 50  0001 C CNN
F 3 "" H 3200 6150 50  0001 C CNN
	1    3200 6150
	1    0    0    -1  
$EndComp
Wire Wire Line
	3200 6150 3200 6300
Connection ~ 3200 6300
Wire Wire Line
	3200 6300 3000 6300
$Comp
L power:GND #PWR02
U 1 1 6180D4F1
P 3200 6750
F 0 "#PWR02" H 3200 6500 50  0001 C CNN
F 1 "GND" H 3205 6577 50  0000 C CNN
F 2 "" H 3200 6750 50  0001 C CNN
F 3 "" H 3200 6750 50  0001 C CNN
	1    3200 6750
	1    0    0    -1  
$EndComp
Wire Wire Line
	3200 6750 3200 6600
Connection ~ 3200 6600
Wire Wire Line
	3200 6600 3650 6600
Text GLabel 5550 5600 2    50   Output ~ 0
SDA
Text GLabel 5550 5700 2    50   Output ~ 0
SCL
Wire Wire Line
	5550 5600 5200 5600
Wire Wire Line
	5200 5700 5550 5700
Text GLabel 5550 6000 2    50   Output ~ 0
DATA
Wire Wire Line
	5550 6000 5200 6000
NoConn ~ 5200 5300
NoConn ~ 5200 5400
NoConn ~ 5200 5500
NoConn ~ 5200 5800
NoConn ~ 5200 5900
NoConn ~ 5200 6100
NoConn ~ 5200 6200
NoConn ~ 5200 6300
NoConn ~ 5200 6400
NoConn ~ 5200 6500
NoConn ~ 5200 6600
NoConn ~ 5200 6700
NoConn ~ 4100 6700
NoConn ~ 4100 6500
NoConn ~ 4100 6200
NoConn ~ 4100 6100
NoConn ~ 4100 6000
NoConn ~ 4100 5900
NoConn ~ 4100 5800
NoConn ~ 4100 5700
NoConn ~ 4100 5600
$Comp
L power:VCC #PWR06
U 1 1 618110E3
P 3800 1150
F 0 "#PWR06" H 3800 1000 50  0001 C CNN
F 1 "VCC" H 3815 1323 50  0000 C CNN
F 2 "" H 3800 1150 50  0001 C CNN
F 3 "" H 3800 1150 50  0001 C CNN
	1    3800 1150
	1    0    0    -1  
$EndComp
$Comp
L power:GND #PWR03
U 1 1 6181179D
P 3550 1350
F 0 "#PWR03" H 3550 1100 50  0001 C CNN
F 1 "GND" H 3555 1177 50  0000 C CNN
F 2 "" H 3550 1350 50  0001 C CNN
F 3 "" H 3550 1350 50  0001 C CNN
	1    3550 1350
	1    0    0    -1  
$EndComp
Text GLabel 3850 1400 0    50   Input ~ 0
SDA
Text GLabel 3850 1500 0    50   Input ~ 0
SCL
Wire Wire Line
	4000 1400 3850 1400
Wire Wire Line
	3850 1500 4000 1500
Wire Wire Line
	4000 1300 3550 1300
Wire Wire Line
	3550 1300 3550 1350
Wire Wire Line
	4000 1200 3800 1200
Wire Wire Line
	3800 1200 3800 1150
Text GLabel 3850 2800 0    50   Input ~ 0
DATA
$Comp
L power:VCC #PWR04
U 1 1 61813B9F
P 3550 2800
F 0 "#PWR04" H 3550 2650 50  0001 C CNN
F 1 "VCC" H 3565 2973 50  0000 C CNN
F 2 "" H 3550 2800 50  0001 C CNN
F 3 "" H 3550 2800 50  0001 C CNN
	1    3550 2800
	1    0    0    -1  
$EndComp
$Comp
L power:GND #PWR05
U 1 1 618141E3
P 3550 3050
F 0 "#PWR05" H 3550 2800 50  0001 C CNN
F 1 "GND" H 3555 2877 50  0000 C CNN
F 2 "" H 3550 3050 50  0001 C CNN
F 3 "" H 3550 3050 50  0001 C CNN
	1    3550 3050
	1    0    0    -1  
$EndComp
Wire Wire Line
	3850 2800 4000 2800
Wire Wire Line
	3550 2800 3550 2900
Wire Wire Line
	3550 2900 4000 2900
Wire Wire Line
	3550 3050 3550 3000
Wire Wire Line
	3550 3000 4000 3000
$Comp
L power:VCC #PWR09
U 1 1 6181A4CC
P 5800 1150
F 0 "#PWR09" H 5800 1000 50  0001 C CNN
F 1 "VCC" H 5815 1323 50  0000 C CNN
F 2 "" H 5800 1150 50  0001 C CNN
F 3 "" H 5800 1150 50  0001 C CNN
	1    5800 1150
	1    0    0    -1  
$EndComp
$Comp
L power:GND #PWR07
U 1 1 6181A68A
P 5550 1350
F 0 "#PWR07" H 5550 1100 50  0001 C CNN
F 1 "GND" H 5555 1177 50  0000 C CNN
F 2 "" H 5550 1350 50  0001 C CNN
F 3 "" H 5550 1350 50  0001 C CNN
	1    5550 1350
	1    0    0    -1  
$EndComp
Text GLabel 5850 1500 0    50   Input ~ 0
SDA
Text GLabel 5850 1400 0    50   Input ~ 0
SCL
Wire Wire Line
	6000 1400 5850 1400
Wire Wire Line
	5850 1500 6000 1500
Wire Wire Line
	6000 1300 5550 1300
Wire Wire Line
	5550 1300 5550 1350
Wire Wire Line
	6000 1200 5800 1200
Wire Wire Line
	5800 1200 5800 1150
$Comp
L Connector:Conn_01x05_Female J5
U 1 1 617FA3AD
P 6200 2800
F 0 "J5" H 6228 2826 50  0000 L CNN
F 1 "GY30 (light) BH1750FVI" H 6228 2735 50  0000 L CNN
F 2 "Connector_PinSocket_2.54mm:PinSocket_1x05_P2.54mm_Vertical" H 6200 2800 50  0001 C CNN
F 3 "~" H 6200 2800 50  0001 C CNN
	1    6200 2800
	1    0    0    -1  
$EndComp
Text GLabel 5850 2800 0    50   Input ~ 0
SDA
Text GLabel 5850 2700 0    50   Input ~ 0
SCL
Wire Wire Line
	6000 2700 5850 2700
Wire Wire Line
	5850 2800 6000 2800
$Comp
L power:VCC #PWR010
U 1 1 618257E7
P 5800 2550
F 0 "#PWR010" H 5800 2400 50  0001 C CNN
F 1 "VCC" H 5815 2723 50  0000 C CNN
F 2 "" H 5800 2550 50  0001 C CNN
F 3 "" H 5800 2550 50  0001 C CNN
	1    5800 2550
	1    0    0    -1  
$EndComp
Wire Wire Line
	6000 2600 5800 2600
Wire Wire Line
	5800 2600 5800 2550
$Comp
L Device:R_US R1
U 1 1 618264EB
P 5500 2900
F 0 "R1" V 5295 2900 50  0000 C CNN
F 1 "1k" V 5386 2900 50  0000 C CNN
F 2 "Resistor_THT:R_Axial_DIN0204_L3.6mm_D1.6mm_P7.62mm_Horizontal" V 5540 2890 50  0001 C CNN
F 3 "~" H 5500 2900 50  0001 C CNN
	1    5500 2900
	0    1    1    0   
$EndComp
$Comp
L power:GND #PWR08
U 1 1 6182697F
P 5550 3100
F 0 "#PWR08" H 5550 2850 50  0001 C CNN
F 1 "GND" H 5555 2927 50  0000 C CNN
F 2 "" H 5550 3100 50  0001 C CNN
F 3 "" H 5550 3100 50  0001 C CNN
	1    5550 3100
	1    0    0    -1  
$EndComp
Wire Wire Line
	5650 2900 6000 2900
Wire Wire Line
	6000 3000 5550 3000
Wire Wire Line
	5300 3000 5300 2900
Wire Wire Line
	5300 2900 5350 2900
Wire Wire Line
	5550 3100 5550 3000
Connection ~ 5550 3000
Wire Wire Line
	5550 3000 5300 3000
NoConn ~ 8000 1400
Text GLabel 3750 5300 0    50   Output ~ 0
a0
Wire Wire Line
	3750 5300 4100 5300
Text GLabel 7850 1500 0    50   Input ~ 0
a0
Wire Wire Line
	7850 1500 8000 1500
$Comp
L power:GND #PWR011
U 1 1 6182DA77
P 7600 1400
F 0 "#PWR011" H 7600 1150 50  0001 C CNN
F 1 "GND" H 7605 1227 50  0000 C CNN
F 2 "" H 7600 1400 50  0001 C CNN
F 3 "" H 7600 1400 50  0001 C CNN
	1    7600 1400
	1    0    0    -1  
$EndComp
$Comp
L power:VCC #PWR012
U 1 1 6182E058
P 7800 1150
F 0 "#PWR012" H 7800 1000 50  0001 C CNN
F 1 "VCC" H 7815 1323 50  0000 C CNN
F 2 "" H 7800 1150 50  0001 C CNN
F 3 "" H 7800 1150 50  0001 C CNN
	1    7800 1150
	1    0    0    -1  
$EndComp
Wire Wire Line
	8000 1200 7800 1200
Wire Wire Line
	7800 1200 7800 1150
Wire Wire Line
	8000 1300 7600 1300
Wire Wire Line
	7600 1300 7600 1400
$Comp
L power:PWR_FLAG #FLG0101
U 1 1 618457AB
P 3650 6150
F 0 "#FLG0101" H 3650 6225 50  0001 C CNN
F 1 "PWR_FLAG" H 3650 6323 50  0000 C CNN
F 2 "" H 3650 6150 50  0001 C CNN
F 3 "~" H 3650 6150 50  0001 C CNN
	1    3650 6150
	1    0    0    -1  
$EndComp
Wire Wire Line
	3650 6150 3650 6300
Connection ~ 3650 6300
Wire Wire Line
	3650 6300 3200 6300
$Comp
L power:PWR_FLAG #FLG0102
U 1 1 618465FA
P 3650 6750
F 0 "#FLG0102" H 3650 6825 50  0001 C CNN
F 1 "PWR_FLAG" H 3650 6923 50  0000 C CNN
F 2 "" H 3650 6750 50  0001 C CNN
F 3 "~" H 3650 6750 50  0001 C CNN
	1    3650 6750
	-1   0    0    1   
$EndComp
Wire Wire Line
	3650 6750 3650 6600
Connection ~ 3650 6600
Wire Wire Line
	3650 6600 4100 6600
NoConn ~ 4100 5400
NoConn ~ 4100 5500
NoConn ~ 4100 6400
$EndSCHEMATC
