%TF.GenerationSoftware,KiCad,Pcbnew,8.0.1+b2*%
%TF.CreationDate,2024-05-01T21:35:47+02:00*%
%TF.ProjectId,Weatherstationkit,57656174-6865-4727-9374-6174696f6e6b,0.0.0*%
%TF.SameCoordinates,Original*%
%TF.FileFunction,Profile,NP*%
%FSLAX46Y46*%
G04 Gerber Fmt 4.6, Leading zero omitted, Abs format (unit mm)*
G04 Created by KiCad (PCBNEW 8.0.1+b2) date 2024-05-01 21:35:47*
%MOMM*%
%LPD*%
G01*
G04 APERTURE LIST*
%TA.AperFunction,Profile*%
%ADD10C,0.050000*%
%TD*%
G04 APERTURE END LIST*
D10*
X93106666Y-71120000D02*
G75*
G02*
X89773334Y-71120000I-1666666J0D01*
G01*
X89773334Y-71120000D02*
G75*
G02*
X93106666Y-71120000I1666666J0D01*
G01*
X88940000Y-71120000D02*
X93940000Y-71120000D01*
X91440000Y-68620000D02*
X91440000Y-73620000D01*
X91440000Y-71120000D02*
X198120000Y-71120000D01*
X91440000Y-111760000D02*
X91440000Y-71120000D01*
X198120000Y-111760000D02*
X91440000Y-111760000D01*
X198120000Y-71120000D02*
X198120000Y-111760000D01*
M02*
