%TF.GenerationSoftware,KiCad,Pcbnew,8.0.1+b2*%
%TF.CreationDate,2024-05-01T21:35:47+02:00*%
%TF.ProjectId,Weatherstationkit,57656174-6865-4727-9374-6174696f6e6b,0.0.0*%
%TF.SameCoordinates,Original*%
%TF.FileFunction,Copper,L2,Bot*%
%TF.FilePolarity,Positive*%
%FSLAX46Y46*%
G04 Gerber Fmt 4.6, Leading zero omitted, Abs format (unit mm)*
G04 Created by KiCad (PCBNEW 8.0.1+b2) date 2024-05-01 21:35:47*
%MOMM*%
%LPD*%
G01*
G04 APERTURE LIST*
G04 Aperture macros list*
%AMRoundRect*
0 Rectangle with rounded corners*
0 $1 Rounding radius*
0 $2 $3 $4 $5 $6 $7 $8 $9 X,Y pos of 4 corners*
0 Add a 4 corners polygon primitive as box body*
4,1,4,$2,$3,$4,$5,$6,$7,$8,$9,$2,$3,0*
0 Add four circle primitives for the rounded corners*
1,1,$1+$1,$2,$3*
1,1,$1+$1,$4,$5*
1,1,$1+$1,$6,$7*
1,1,$1+$1,$8,$9*
0 Add four rect primitives between the rounded corners*
20,1,$1+$1,$2,$3,$4,$5,0*
20,1,$1+$1,$4,$5,$6,$7,0*
20,1,$1+$1,$6,$7,$8,$9,0*
20,1,$1+$1,$8,$9,$2,$3,0*%
G04 Aperture macros list end*
%TA.AperFunction,ComponentPad*%
%ADD10C,3.302000*%
%TD*%
%TA.AperFunction,ComponentPad*%
%ADD11R,1.700000X1.700000*%
%TD*%
%TA.AperFunction,ComponentPad*%
%ADD12O,1.700000X1.700000*%
%TD*%
%TA.AperFunction,ComponentPad*%
%ADD13C,1.400000*%
%TD*%
%TA.AperFunction,ComponentPad*%
%ADD14O,1.400000X1.400000*%
%TD*%
%TA.AperFunction,ComponentPad*%
%ADD15RoundRect,0.381000X0.381000X-0.619000X0.381000X0.619000X-0.381000X0.619000X-0.381000X-0.619000X0*%
%TD*%
%TA.AperFunction,ViaPad*%
%ADD16C,0.800000*%
%TD*%
%TA.AperFunction,Conductor*%
%ADD17C,0.750000*%
%TD*%
%TA.AperFunction,Conductor*%
%ADD18C,1.000000*%
%TD*%
G04 APERTURE END LIST*
D10*
%TO.P,>NAME,1*%
%TO.N,N/C*%
X157480000Y-76200000D03*
%TD*%
%TO.P,>NAME,1*%
%TO.N,N/C*%
X193040000Y-76200000D03*
%TD*%
%TO.P,>NAME,1*%
%TO.N,N/C*%
X193040000Y-106680000D03*
%TD*%
%TO.P,>NAME,1*%
%TO.N,N/C*%
X124460000Y-106680000D03*
%TD*%
%TO.P,>NAME,1*%
%TO.N,N/C*%
X96520000Y-106680000D03*
%TD*%
%TO.P,>NAME,1*%
%TO.N,N/C*%
X96520000Y-76200000D03*
%TD*%
D11*
%TO.P,J1,1*%
%TO.N,Net-(J1-Pad1)*%
X147320000Y-106680000D03*
D12*
%TO.P,J1,2*%
%TO.N,GND*%
X149860000Y-106680000D03*
%TD*%
D11*
%TO.P,J2,1*%
%TO.N,VCC*%
X187960000Y-104140000D03*
D12*
%TO.P,J2,2*%
%TO.N,GND*%
X187960000Y-101600000D03*
%TO.P,J2,3*%
%TO.N,SDA*%
X187960000Y-99060000D03*
%TO.P,J2,4*%
%TO.N,SCL*%
X187960000Y-96520000D03*
%TD*%
D11*
%TO.P,J3,1*%
%TO.N,DATA*%
X157480000Y-93980000D03*
D12*
%TO.P,J3,2*%
%TO.N,VCC*%
X157480000Y-96520000D03*
%TO.P,J3,3*%
%TO.N,GND*%
X157480000Y-99060000D03*
%TD*%
%TO.P,J4,4*%
%TO.N,SDA*%
X180340000Y-83820000D03*
%TO.P,J4,3*%
%TO.N,SCL*%
X180340000Y-81280000D03*
%TO.P,J4,2*%
%TO.N,GND*%
X180340000Y-78740000D03*
D11*
%TO.P,J4,1*%
%TO.N,VCC*%
X180340000Y-76200000D03*
%TD*%
%TO.P,J5,1*%
%TO.N,VCC*%
X167640000Y-81280000D03*
D12*
%TO.P,J5,2*%
%TO.N,SCL*%
X167640000Y-83820000D03*
%TO.P,J5,3*%
%TO.N,SDA*%
X167640000Y-86360000D03*
%TO.P,J5,4*%
%TO.N,Net-(J5-Pad4)*%
X167640000Y-88900000D03*
%TO.P,J5,5*%
%TO.N,GND*%
X167640000Y-91440000D03*
%TD*%
D11*
%TO.P,J6,1*%
%TO.N,VCC*%
X172720000Y-106680000D03*
D12*
%TO.P,J6,2*%
%TO.N,GND*%
X172720000Y-104140000D03*
%TO.P,J6,3*%
%TO.N,N/C*%
X172720000Y-101600000D03*
%TO.P,J6,4*%
%TO.N,a0*%
X172720000Y-99060000D03*
%TD*%
D13*
%TO.P,R1,1*%
%TO.N,Net-(J5-Pad4)*%
X162560000Y-88900000D03*
D14*
%TO.P,R1,2*%
%TO.N,GND*%
X162560000Y-96520000D03*
%TD*%
D11*
%TO.P,SW1,1*%
%TO.N,N/C*%
X132080000Y-106680000D03*
D12*
%TO.P,SW1,2*%
%TO.N,VCC*%
X134620000Y-106680000D03*
%TO.P,SW1,3*%
%TO.N,Net-(J1-Pad1)*%
X137160000Y-106680000D03*
%TD*%
D15*
%TO.P,U1,1*%
%TO.N,a0*%
X109220000Y-99060000D03*
%TO.P,U1,2*%
%TO.N,N/C*%
X111760000Y-99060000D03*
%TO.P,U1,3*%
X114300000Y-99060000D03*
%TO.P,U1,4*%
X116840000Y-99060000D03*
%TO.P,U1,5*%
X119380000Y-99060000D03*
%TO.P,U1,6*%
X121920000Y-99060000D03*
%TO.P,U1,7*%
X124460000Y-99060000D03*
%TO.P,U1,8*%
X127000000Y-99060000D03*
%TO.P,U1,9*%
X129540000Y-99060000D03*
%TO.P,U1,10*%
X132080000Y-99060000D03*
%TO.P,U1,11*%
%TO.N,VCC*%
X134620000Y-99060000D03*
%TO.P,U1,12*%
%TO.N,N/C*%
X137160000Y-99060000D03*
%TO.P,U1,13*%
X139700000Y-99060000D03*
%TO.P,U1,14*%
%TO.N,GND*%
X142240000Y-99060000D03*
%TO.P,U1,15*%
%TO.N,N/C*%
X144780000Y-99060000D03*
%TO.P,U1,16*%
X144780000Y-76200000D03*
%TO.P,U1,17*%
X142240000Y-76200000D03*
%TO.P,U1,18*%
X139700000Y-76200000D03*
%TO.P,U1,19*%
X137160000Y-76200000D03*
%TO.P,U1,20*%
X134620000Y-76200000D03*
%TO.P,U1,21*%
X132080000Y-76200000D03*
%TO.P,U1,22*%
X129540000Y-76200000D03*
%TO.P,U1,23*%
%TO.N,DATA*%
X127000000Y-76200000D03*
%TO.P,U1,24*%
%TO.N,N/C*%
X124460000Y-76200000D03*
%TO.P,U1,25*%
X121920000Y-76200000D03*
%TO.P,U1,26*%
%TO.N,SCL*%
X119380000Y-76200000D03*
%TO.P,U1,27*%
%TO.N,SDA*%
X116840000Y-76200000D03*
%TO.P,U1,28*%
%TO.N,N/C*%
X114300000Y-76200000D03*
%TO.P,U1,29*%
X111760000Y-76200000D03*
%TO.P,U1,30*%
X109220000Y-76200000D03*
%TD*%
D16*
%TO.N,GND*%
X177800000Y-78740000D03*
X170180000Y-91440000D03*
X162560000Y-99060000D03*
X152400000Y-106680000D03*
X142240000Y-101600000D03*
%TO.N,DATA*%
X154940000Y-93980000D03*
X127000000Y-81280000D03*
%TD*%
D17*
%TO.N,Net-(J1-Pad1)*%
X137160000Y-106680000D02*
X147320000Y-106680000D01*
D18*
%TO.N,GND*%
X149860000Y-106680000D02*
X152400000Y-106680000D01*
X142240000Y-101600000D02*
X142240000Y-99060000D01*
X177800000Y-78740000D02*
X180340000Y-78740000D01*
X170180000Y-91440000D02*
X167640000Y-91440000D01*
X162560000Y-96520000D02*
X162560000Y-99060000D01*
X162560000Y-99060000D02*
X167640000Y-104140000D01*
X172720000Y-104140000D02*
X167640000Y-104140000D01*
X172720000Y-104140000D02*
X182880000Y-104140000D01*
X185420000Y-101600000D02*
X187960000Y-101600000D01*
X185420000Y-101600000D02*
X182880000Y-104140000D01*
X162560000Y-99060000D02*
X157480000Y-99060000D01*
%TO.N,VCC*%
X134620000Y-106680000D02*
X134620000Y-99060000D01*
X134620000Y-99060000D02*
X134620000Y-96520000D01*
X134620000Y-96520000D02*
X137160000Y-93980000D01*
X137160000Y-93980000D02*
X149860000Y-93980000D01*
X149860000Y-93980000D02*
X152400000Y-96520000D01*
X152400000Y-96520000D02*
X157480000Y-96520000D01*
X152400000Y-101600000D02*
X152400000Y-96520000D01*
X157480000Y-106680000D02*
X152400000Y-101600000D01*
X172720000Y-106680000D02*
X157480000Y-106680000D01*
X187960000Y-104140000D02*
X185420000Y-104140000D01*
X182880000Y-106680000D02*
X172720000Y-106680000D01*
X185420000Y-104140000D02*
X182880000Y-106680000D01*
X187960000Y-104140000D02*
X190500000Y-104140000D01*
X190500000Y-104140000D02*
X193040000Y-101600000D01*
X193040000Y-101600000D02*
X193040000Y-86360000D01*
X193040000Y-86360000D02*
X182880000Y-76200000D01*
X182880000Y-76200000D02*
X180340000Y-76200000D01*
X172720000Y-81280000D02*
X167640000Y-81280000D01*
X177800000Y-76200000D02*
X172720000Y-81280000D01*
X180340000Y-76200000D02*
X177800000Y-76200000D01*
D17*
%TO.N,SDA*%
X167640000Y-86360000D02*
X172720000Y-86360000D01*
X172720000Y-86360000D02*
X175260000Y-83820000D01*
X175260000Y-83820000D02*
X180340000Y-83820000D01*
X185420000Y-99060000D02*
X187960000Y-99060000D01*
X182880000Y-96520000D02*
X185420000Y-99060000D01*
X182880000Y-86360000D02*
X182880000Y-96520000D01*
X180340000Y-83820000D02*
X182880000Y-86360000D01*
X167640000Y-86360000D02*
X124460000Y-86360000D01*
X116840000Y-78740000D02*
X116840000Y-76200000D01*
X124460000Y-86360000D02*
X116840000Y-78740000D01*
%TO.N,SCL*%
X167640000Y-83820000D02*
X124460000Y-83820000D01*
X119380000Y-78740000D02*
X119380000Y-76200000D01*
X124460000Y-83820000D02*
X119380000Y-78740000D01*
X180340000Y-81280000D02*
X175260000Y-81280000D01*
X172720000Y-83820000D02*
X167640000Y-83820000D01*
X175260000Y-81280000D02*
X172720000Y-83820000D01*
X187960000Y-96520000D02*
X185420000Y-93980000D01*
X185420000Y-93980000D02*
X185420000Y-86360000D01*
X185420000Y-86360000D02*
X185420000Y-83820000D01*
X185420000Y-83820000D02*
X182880000Y-81280000D01*
X182880000Y-81280000D02*
X180340000Y-81280000D01*
%TO.N,DATA*%
X157480000Y-93980000D02*
X154940000Y-93980000D01*
X127000000Y-81280000D02*
X127000000Y-76200000D01*
%TO.N,Net-(J5-Pad4)*%
X162560000Y-88900000D02*
X167640000Y-88900000D01*
%TO.N,a0*%
X172720000Y-99060000D02*
X167640000Y-99060000D01*
X167640000Y-99060000D02*
X165100000Y-96520000D01*
X165100000Y-96520000D02*
X165100000Y-93980000D01*
X165100000Y-93980000D02*
X162560000Y-91440000D01*
X162560000Y-91440000D02*
X111760000Y-91440000D01*
X111760000Y-91440000D02*
X109220000Y-93980000D01*
X109220000Y-93980000D02*
X109220000Y-99060000D01*
%TD*%
M02*
