%TF.GenerationSoftware,KiCad,Pcbnew,8.0.1+b2*%
%TF.CreationDate,2024-05-01T21:35:47+02:00*%
%TF.ProjectId,Weatherstationkit,57656174-6865-4727-9374-6174696f6e6b,0.0.0*%
%TF.SameCoordinates,Original*%
%TF.FileFunction,Legend,Top*%
%TF.FilePolarity,Positive*%
%FSLAX46Y46*%
G04 Gerber Fmt 4.6, Leading zero omitted, Abs format (unit mm)*
G04 Created by KiCad (PCBNEW 8.0.1+b2) date 2024-05-01 21:35:47*
%MOMM*%
%LPD*%
G01*
G04 APERTURE LIST*
%ADD10C,0.150000*%
%ADD11C,0.120000*%
G04 APERTURE END LIST*
D10*
X144446666Y-108674819D02*
X144446666Y-109389104D01*
X144446666Y-109389104D02*
X144399047Y-109531961D01*
X144399047Y-109531961D02*
X144303809Y-109627200D01*
X144303809Y-109627200D02*
X144160952Y-109674819D01*
X144160952Y-109674819D02*
X144065714Y-109674819D01*
X145446666Y-109674819D02*
X144875238Y-109674819D01*
X145160952Y-109674819D02*
X145160952Y-108674819D01*
X145160952Y-108674819D02*
X145065714Y-108817676D01*
X145065714Y-108817676D02*
X144970476Y-108912914D01*
X144970476Y-108912914D02*
X144875238Y-108960533D01*
X187626666Y-106364819D02*
X187626666Y-107079104D01*
X187626666Y-107079104D02*
X187579047Y-107221961D01*
X187579047Y-107221961D02*
X187483809Y-107317200D01*
X187483809Y-107317200D02*
X187340952Y-107364819D01*
X187340952Y-107364819D02*
X187245714Y-107364819D01*
X188055238Y-106460057D02*
X188102857Y-106412438D01*
X188102857Y-106412438D02*
X188198095Y-106364819D01*
X188198095Y-106364819D02*
X188436190Y-106364819D01*
X188436190Y-106364819D02*
X188531428Y-106412438D01*
X188531428Y-106412438D02*
X188579047Y-106460057D01*
X188579047Y-106460057D02*
X188626666Y-106555295D01*
X188626666Y-106555295D02*
X188626666Y-106650533D01*
X188626666Y-106650533D02*
X188579047Y-106793390D01*
X188579047Y-106793390D02*
X188007619Y-107364819D01*
X188007619Y-107364819D02*
X188626666Y-107364819D01*
X157146666Y-90664819D02*
X157146666Y-91379104D01*
X157146666Y-91379104D02*
X157099047Y-91521961D01*
X157099047Y-91521961D02*
X157003809Y-91617200D01*
X157003809Y-91617200D02*
X156860952Y-91664819D01*
X156860952Y-91664819D02*
X156765714Y-91664819D01*
X157527619Y-90664819D02*
X158146666Y-90664819D01*
X158146666Y-90664819D02*
X157813333Y-91045771D01*
X157813333Y-91045771D02*
X157956190Y-91045771D01*
X157956190Y-91045771D02*
X158051428Y-91093390D01*
X158051428Y-91093390D02*
X158099047Y-91141009D01*
X158099047Y-91141009D02*
X158146666Y-91236247D01*
X158146666Y-91236247D02*
X158146666Y-91474342D01*
X158146666Y-91474342D02*
X158099047Y-91569580D01*
X158099047Y-91569580D02*
X158051428Y-91617200D01*
X158051428Y-91617200D02*
X157956190Y-91664819D01*
X157956190Y-91664819D02*
X157670476Y-91664819D01*
X157670476Y-91664819D02*
X157575238Y-91617200D01*
X157575238Y-91617200D02*
X157527619Y-91569580D01*
X180006666Y-72884819D02*
X180006666Y-73599104D01*
X180006666Y-73599104D02*
X179959047Y-73741961D01*
X179959047Y-73741961D02*
X179863809Y-73837200D01*
X179863809Y-73837200D02*
X179720952Y-73884819D01*
X179720952Y-73884819D02*
X179625714Y-73884819D01*
X180911428Y-73218152D02*
X180911428Y-73884819D01*
X180673333Y-72837200D02*
X180435238Y-73551485D01*
X180435238Y-73551485D02*
X181054285Y-73551485D01*
X167306666Y-77964819D02*
X167306666Y-78679104D01*
X167306666Y-78679104D02*
X167259047Y-78821961D01*
X167259047Y-78821961D02*
X167163809Y-78917200D01*
X167163809Y-78917200D02*
X167020952Y-78964819D01*
X167020952Y-78964819D02*
X166925714Y-78964819D01*
X168259047Y-77964819D02*
X167782857Y-77964819D01*
X167782857Y-77964819D02*
X167735238Y-78441009D01*
X167735238Y-78441009D02*
X167782857Y-78393390D01*
X167782857Y-78393390D02*
X167878095Y-78345771D01*
X167878095Y-78345771D02*
X168116190Y-78345771D01*
X168116190Y-78345771D02*
X168211428Y-78393390D01*
X168211428Y-78393390D02*
X168259047Y-78441009D01*
X168259047Y-78441009D02*
X168306666Y-78536247D01*
X168306666Y-78536247D02*
X168306666Y-78774342D01*
X168306666Y-78774342D02*
X168259047Y-78869580D01*
X168259047Y-78869580D02*
X168211428Y-78917200D01*
X168211428Y-78917200D02*
X168116190Y-78964819D01*
X168116190Y-78964819D02*
X167878095Y-78964819D01*
X167878095Y-78964819D02*
X167782857Y-78917200D01*
X167782857Y-78917200D02*
X167735238Y-78869580D01*
X172386666Y-108904819D02*
X172386666Y-109619104D01*
X172386666Y-109619104D02*
X172339047Y-109761961D01*
X172339047Y-109761961D02*
X172243809Y-109857200D01*
X172243809Y-109857200D02*
X172100952Y-109904819D01*
X172100952Y-109904819D02*
X172005714Y-109904819D01*
X173291428Y-108904819D02*
X173100952Y-108904819D01*
X173100952Y-108904819D02*
X173005714Y-108952438D01*
X173005714Y-108952438D02*
X172958095Y-109000057D01*
X172958095Y-109000057D02*
X172862857Y-109142914D01*
X172862857Y-109142914D02*
X172815238Y-109333390D01*
X172815238Y-109333390D02*
X172815238Y-109714342D01*
X172815238Y-109714342D02*
X172862857Y-109809580D01*
X172862857Y-109809580D02*
X172910476Y-109857200D01*
X172910476Y-109857200D02*
X173005714Y-109904819D01*
X173005714Y-109904819D02*
X173196190Y-109904819D01*
X173196190Y-109904819D02*
X173291428Y-109857200D01*
X173291428Y-109857200D02*
X173339047Y-109809580D01*
X173339047Y-109809580D02*
X173386666Y-109714342D01*
X173386666Y-109714342D02*
X173386666Y-109476247D01*
X173386666Y-109476247D02*
X173339047Y-109381009D01*
X173339047Y-109381009D02*
X173291428Y-109333390D01*
X173291428Y-109333390D02*
X173196190Y-109285771D01*
X173196190Y-109285771D02*
X173005714Y-109285771D01*
X173005714Y-109285771D02*
X172910476Y-109333390D01*
X172910476Y-109333390D02*
X172862857Y-109381009D01*
X172862857Y-109381009D02*
X172815238Y-109476247D01*
X162393333Y-86814819D02*
X162060000Y-86338628D01*
X161821905Y-86814819D02*
X161821905Y-85814819D01*
X161821905Y-85814819D02*
X162202857Y-85814819D01*
X162202857Y-85814819D02*
X162298095Y-85862438D01*
X162298095Y-85862438D02*
X162345714Y-85910057D01*
X162345714Y-85910057D02*
X162393333Y-86005295D01*
X162393333Y-86005295D02*
X162393333Y-86148152D01*
X162393333Y-86148152D02*
X162345714Y-86243390D01*
X162345714Y-86243390D02*
X162298095Y-86291009D01*
X162298095Y-86291009D02*
X162202857Y-86338628D01*
X162202857Y-86338628D02*
X161821905Y-86338628D01*
X163345714Y-86814819D02*
X162774286Y-86814819D01*
X163060000Y-86814819D02*
X163060000Y-85814819D01*
X163060000Y-85814819D02*
X162964762Y-85957676D01*
X162964762Y-85957676D02*
X162869524Y-86052914D01*
X162869524Y-86052914D02*
X162774286Y-86100533D01*
X128206667Y-109627200D02*
X128349524Y-109674819D01*
X128349524Y-109674819D02*
X128587619Y-109674819D01*
X128587619Y-109674819D02*
X128682857Y-109627200D01*
X128682857Y-109627200D02*
X128730476Y-109579580D01*
X128730476Y-109579580D02*
X128778095Y-109484342D01*
X128778095Y-109484342D02*
X128778095Y-109389104D01*
X128778095Y-109389104D02*
X128730476Y-109293866D01*
X128730476Y-109293866D02*
X128682857Y-109246247D01*
X128682857Y-109246247D02*
X128587619Y-109198628D01*
X128587619Y-109198628D02*
X128397143Y-109151009D01*
X128397143Y-109151009D02*
X128301905Y-109103390D01*
X128301905Y-109103390D02*
X128254286Y-109055771D01*
X128254286Y-109055771D02*
X128206667Y-108960533D01*
X128206667Y-108960533D02*
X128206667Y-108865295D01*
X128206667Y-108865295D02*
X128254286Y-108770057D01*
X128254286Y-108770057D02*
X128301905Y-108722438D01*
X128301905Y-108722438D02*
X128397143Y-108674819D01*
X128397143Y-108674819D02*
X128635238Y-108674819D01*
X128635238Y-108674819D02*
X128778095Y-108722438D01*
X129111429Y-108674819D02*
X129349524Y-109674819D01*
X129349524Y-109674819D02*
X129540000Y-108960533D01*
X129540000Y-108960533D02*
X129730476Y-109674819D01*
X129730476Y-109674819D02*
X129968572Y-108674819D01*
X130873333Y-109674819D02*
X130301905Y-109674819D01*
X130587619Y-109674819D02*
X130587619Y-108674819D01*
X130587619Y-108674819D02*
X130492381Y-108817676D01*
X130492381Y-108817676D02*
X130397143Y-108912914D01*
X130397143Y-108912914D02*
X130301905Y-108960533D01*
X108458095Y-87084819D02*
X108458095Y-87894342D01*
X108458095Y-87894342D02*
X108505714Y-87989580D01*
X108505714Y-87989580D02*
X108553333Y-88037200D01*
X108553333Y-88037200D02*
X108648571Y-88084819D01*
X108648571Y-88084819D02*
X108839047Y-88084819D01*
X108839047Y-88084819D02*
X108934285Y-88037200D01*
X108934285Y-88037200D02*
X108981904Y-87989580D01*
X108981904Y-87989580D02*
X109029523Y-87894342D01*
X109029523Y-87894342D02*
X109029523Y-87084819D01*
X110029523Y-88084819D02*
X109458095Y-88084819D01*
X109743809Y-88084819D02*
X109743809Y-87084819D01*
X109743809Y-87084819D02*
X109648571Y-87227676D01*
X109648571Y-87227676D02*
X109553333Y-87322914D01*
X109553333Y-87322914D02*
X109458095Y-87370533D01*
D11*
%TO.C,J1*%
X151190000Y-108010000D02*
X151190000Y-105350000D01*
X148590000Y-108010000D02*
X151190000Y-108010000D01*
X148590000Y-105350000D02*
X151190000Y-105350000D01*
X148590000Y-108010000D02*
X148590000Y-105350000D01*
X147320000Y-108010000D02*
X145990000Y-108010000D01*
X145990000Y-108010000D02*
X145990000Y-106680000D01*
%TO.C,J2*%
X189290000Y-102870000D02*
X186630000Y-102870000D01*
X189290000Y-102870000D02*
X189290000Y-95190000D01*
X189290000Y-95190000D02*
X186630000Y-95190000D01*
X186630000Y-102870000D02*
X186630000Y-95190000D01*
X186630000Y-105470000D02*
X186630000Y-104140000D01*
X187960000Y-105470000D02*
X186630000Y-105470000D01*
%TO.C,J3*%
X156150000Y-95250000D02*
X158810000Y-95250000D01*
X156150000Y-95250000D02*
X156150000Y-100390000D01*
X156150000Y-100390000D02*
X158810000Y-100390000D01*
X158810000Y-95250000D02*
X158810000Y-100390000D01*
X158810000Y-92650000D02*
X158810000Y-93980000D01*
X157480000Y-92650000D02*
X158810000Y-92650000D01*
%TO.C,J4*%
X180340000Y-74870000D02*
X181670000Y-74870000D01*
X181670000Y-74870000D02*
X181670000Y-76200000D01*
X181670000Y-77470000D02*
X181670000Y-85150000D01*
X179010000Y-85150000D02*
X181670000Y-85150000D01*
X179010000Y-77470000D02*
X179010000Y-85150000D01*
X179010000Y-77470000D02*
X181670000Y-77470000D01*
%TO.C,J5*%
X166310000Y-82550000D02*
X168970000Y-82550000D01*
X166310000Y-82550000D02*
X166310000Y-92770000D01*
X166310000Y-92770000D02*
X168970000Y-92770000D01*
X168970000Y-82550000D02*
X168970000Y-92770000D01*
X168970000Y-79950000D02*
X168970000Y-81280000D01*
X167640000Y-79950000D02*
X168970000Y-79950000D01*
%TO.C,J6*%
X174050000Y-105410000D02*
X171390000Y-105410000D01*
X174050000Y-105410000D02*
X174050000Y-97730000D01*
X174050000Y-97730000D02*
X171390000Y-97730000D01*
X171390000Y-105410000D02*
X171390000Y-97730000D01*
X171390000Y-108010000D02*
X171390000Y-106680000D01*
X172720000Y-108010000D02*
X171390000Y-108010000D01*
%TO.C,R1*%
X163480000Y-90790000D02*
X161640000Y-90790000D01*
X161640000Y-90790000D02*
X161640000Y-94630000D01*
X161640000Y-94630000D02*
X163480000Y-94630000D01*
X163480000Y-94630000D02*
X163480000Y-90790000D01*
X162560000Y-89840000D02*
X162560000Y-90790000D01*
X162560000Y-95580000D02*
X162560000Y-94630000D01*
%TO.C,SW1*%
X138490000Y-108010000D02*
X138490000Y-105350000D01*
X133350000Y-108010000D02*
X138490000Y-108010000D01*
X133350000Y-105350000D02*
X138490000Y-105350000D01*
X133350000Y-108010000D02*
X133350000Y-105350000D01*
X132080000Y-108010000D02*
X130750000Y-108010000D01*
X130750000Y-108010000D02*
X130750000Y-106680000D01*
D10*
%TO.C,U1*%
X106680000Y-101600000D02*
X106680000Y-73660000D01*
X106680000Y-73660000D02*
X147320000Y-73660000D01*
X147320000Y-73660000D02*
X147320000Y-101600000D01*
X147320000Y-101600000D02*
X106680000Y-101600000D01*
X100330000Y-101600000D02*
X154940000Y-101600000D01*
X154940000Y-101600000D02*
X154940000Y-73660000D01*
X154940000Y-73660000D02*
X100330000Y-73660000D01*
X100330000Y-73660000D02*
X100330000Y-101600000D01*
%TD*%
M02*
