%TF.GenerationSoftware,KiCad,Pcbnew,8.0.1+b2*%
%TF.CreationDate,2024-05-01T21:35:44+02:00*%
%TF.ProjectId,Weatherstationkit,57656174-6865-4727-9374-6174696f6e6b,0.0.0*%
%TF.SameCoordinates,Original*%
%TF.FileFunction,Drillmap*%
%TF.FilePolarity,Positive*%
%FSLAX45Y45*%
G04 Gerber Fmt 4.5, Leading zero omitted, Abs format (unit mm)*
G04 Created by KiCad (PCBNEW 8.0.1+b2) date 2024-05-01 21:35:44*
%MOMM*%
%LPD*%
G01*
G04 APERTURE LIST*
%ADD10C,0.050000*%
%ADD11C,0.200000*%
%ADD12C,0.100000*%
%ADD13C,0.199898*%
G04 APERTURE END LIST*
D10*
X9144000Y-7112000D02*
X19812000Y-7112000D01*
X9144000Y-11176000D02*
X9144000Y-7112000D01*
X19812000Y-11176000D02*
X9144000Y-11176000D01*
X19812000Y-7112000D02*
X19812000Y-11176000D01*
D11*
D12*
X12680000Y-8108000D02*
X12720000Y-8148000D01*
X12720000Y-8108000D02*
X12680000Y-8148000D01*
X14204000Y-10140000D02*
X14244000Y-10180000D01*
X14244000Y-10140000D02*
X14204000Y-10180000D01*
X15220000Y-10648000D02*
X15260000Y-10688000D01*
X15260000Y-10648000D02*
X15220000Y-10688000D01*
X15474000Y-9378000D02*
X15514000Y-9418000D01*
X15514000Y-9378000D02*
X15474000Y-9418000D01*
X16236000Y-9886000D02*
X16276000Y-9926000D01*
X16276000Y-9886000D02*
X16236000Y-9926000D01*
X16998000Y-9124000D02*
X17038000Y-9164000D01*
X17038000Y-9124000D02*
X16998000Y-9164000D01*
X17760000Y-7854000D02*
X17800000Y-7894000D01*
X17800000Y-7854000D02*
X17760000Y-7894000D01*
X16291000Y-8890000D02*
G75*
G02*
X16221000Y-8890000I-35000J0D01*
G01*
X16221000Y-8890000D02*
G75*
G02*
X16291000Y-8890000I35000J0D01*
G01*
X16291000Y-9652000D02*
G75*
G02*
X16221000Y-9652000I-35000J0D01*
G01*
X16221000Y-9652000D02*
G75*
G02*
X16291000Y-9652000I35000J0D01*
G01*
X10922000Y-7581900D02*
X10922000Y-7658100D01*
X10883900Y-7620000D02*
X10960100Y-7620000D01*
X10922000Y-9867900D02*
X10922000Y-9944100D01*
X10883900Y-9906000D02*
X10960100Y-9906000D01*
X11176000Y-7581900D02*
X11176000Y-7658100D01*
X11137900Y-7620000D02*
X11214100Y-7620000D01*
X11176000Y-9867900D02*
X11176000Y-9944100D01*
X11137900Y-9906000D02*
X11214100Y-9906000D01*
X11430000Y-7581900D02*
X11430000Y-7658100D01*
X11391900Y-7620000D02*
X11468100Y-7620000D01*
X11430000Y-9867900D02*
X11430000Y-9944100D01*
X11391900Y-9906000D02*
X11468100Y-9906000D01*
X11684000Y-7581900D02*
X11684000Y-7658100D01*
X11645900Y-7620000D02*
X11722100Y-7620000D01*
X11684000Y-9867900D02*
X11684000Y-9944100D01*
X11645900Y-9906000D02*
X11722100Y-9906000D01*
X11938000Y-7581900D02*
X11938000Y-7658100D01*
X11899900Y-7620000D02*
X11976100Y-7620000D01*
X11938000Y-9867900D02*
X11938000Y-9944100D01*
X11899900Y-9906000D02*
X11976100Y-9906000D01*
X12192000Y-7581900D02*
X12192000Y-7658100D01*
X12153900Y-7620000D02*
X12230100Y-7620000D01*
X12192000Y-9867900D02*
X12192000Y-9944100D01*
X12153900Y-9906000D02*
X12230100Y-9906000D01*
X12446000Y-7581900D02*
X12446000Y-7658100D01*
X12407900Y-7620000D02*
X12484100Y-7620000D01*
X12446000Y-9867900D02*
X12446000Y-9944100D01*
X12407900Y-9906000D02*
X12484100Y-9906000D01*
X12700000Y-7581900D02*
X12700000Y-7658100D01*
X12661900Y-7620000D02*
X12738100Y-7620000D01*
X12700000Y-9867900D02*
X12700000Y-9944100D01*
X12661900Y-9906000D02*
X12738100Y-9906000D01*
X12954000Y-7581900D02*
X12954000Y-7658100D01*
X12915900Y-7620000D02*
X12992100Y-7620000D01*
X12954000Y-9867900D02*
X12954000Y-9944100D01*
X12915900Y-9906000D02*
X12992100Y-9906000D01*
X13208000Y-7581900D02*
X13208000Y-7658100D01*
X13169900Y-7620000D02*
X13246100Y-7620000D01*
X13208000Y-9867900D02*
X13208000Y-9944100D01*
X13169900Y-9906000D02*
X13246100Y-9906000D01*
X13462000Y-7581900D02*
X13462000Y-7658100D01*
X13423900Y-7620000D02*
X13500100Y-7620000D01*
X13462000Y-9867900D02*
X13462000Y-9944100D01*
X13423900Y-9906000D02*
X13500100Y-9906000D01*
X13716000Y-7581900D02*
X13716000Y-7658100D01*
X13677900Y-7620000D02*
X13754100Y-7620000D01*
X13716000Y-9867900D02*
X13716000Y-9944100D01*
X13677900Y-9906000D02*
X13754100Y-9906000D01*
X13970000Y-7581900D02*
X13970000Y-7658100D01*
X13931900Y-7620000D02*
X14008100Y-7620000D01*
X13970000Y-9867900D02*
X13970000Y-9944100D01*
X13931900Y-9906000D02*
X14008100Y-9906000D01*
X14224000Y-7581900D02*
X14224000Y-7658100D01*
X14185900Y-7620000D02*
X14262100Y-7620000D01*
X14224000Y-9867900D02*
X14224000Y-9944100D01*
X14185900Y-9906000D02*
X14262100Y-9906000D01*
X14478000Y-7581900D02*
X14478000Y-7658100D01*
X14439900Y-7620000D02*
X14516100Y-7620000D01*
X14478000Y-9867900D02*
X14478000Y-9944100D01*
X14439900Y-9906000D02*
X14516100Y-9906000D01*
X13243356Y-10703356D02*
X13243356Y-10632644D01*
X13172644Y-10632644D01*
X13172644Y-10703356D01*
X13243356Y-10703356D01*
X13497356Y-10703356D02*
X13497356Y-10632644D01*
X13426644Y-10632644D01*
X13426644Y-10703356D01*
X13497356Y-10703356D01*
X13751356Y-10703356D02*
X13751356Y-10632644D01*
X13680644Y-10632644D01*
X13680644Y-10703356D01*
X13751356Y-10703356D01*
X14767356Y-10703356D02*
X14767356Y-10632644D01*
X14696644Y-10632644D01*
X14696644Y-10703356D01*
X14767356Y-10703356D01*
X15021356Y-10703356D02*
X15021356Y-10632644D01*
X14950644Y-10632644D01*
X14950644Y-10703356D01*
X15021356Y-10703356D01*
X15783356Y-9433356D02*
X15783356Y-9362644D01*
X15712644Y-9362644D01*
X15712644Y-9433356D01*
X15783356Y-9433356D01*
X15783356Y-9687356D02*
X15783356Y-9616644D01*
X15712644Y-9616644D01*
X15712644Y-9687356D01*
X15783356Y-9687356D01*
X15783356Y-9941356D02*
X15783356Y-9870644D01*
X15712644Y-9870644D01*
X15712644Y-9941356D01*
X15783356Y-9941356D01*
X16799356Y-8163356D02*
X16799356Y-8092644D01*
X16728644Y-8092644D01*
X16728644Y-8163356D01*
X16799356Y-8163356D01*
X16799356Y-8417356D02*
X16799356Y-8346644D01*
X16728644Y-8346644D01*
X16728644Y-8417356D01*
X16799356Y-8417356D01*
X16799356Y-8671356D02*
X16799356Y-8600644D01*
X16728644Y-8600644D01*
X16728644Y-8671356D01*
X16799356Y-8671356D01*
X16799356Y-8925356D02*
X16799356Y-8854644D01*
X16728644Y-8854644D01*
X16728644Y-8925356D01*
X16799356Y-8925356D01*
X16799356Y-9179356D02*
X16799356Y-9108644D01*
X16728644Y-9108644D01*
X16728644Y-9179356D01*
X16799356Y-9179356D01*
X17307356Y-9941356D02*
X17307356Y-9870644D01*
X17236644Y-9870644D01*
X17236644Y-9941356D01*
X17307356Y-9941356D01*
X17307356Y-10195356D02*
X17307356Y-10124644D01*
X17236644Y-10124644D01*
X17236644Y-10195356D01*
X17307356Y-10195356D01*
X17307356Y-10449356D02*
X17307356Y-10378644D01*
X17236644Y-10378644D01*
X17236644Y-10449356D01*
X17307356Y-10449356D01*
X17307356Y-10703356D02*
X17307356Y-10632644D01*
X17236644Y-10632644D01*
X17236644Y-10703356D01*
X17307356Y-10703356D01*
X18069356Y-7655356D02*
X18069356Y-7584644D01*
X17998644Y-7584644D01*
X17998644Y-7655356D01*
X18069356Y-7655356D01*
X18069356Y-7909356D02*
X18069356Y-7838644D01*
X17998644Y-7838644D01*
X17998644Y-7909356D01*
X18069356Y-7909356D01*
X18069356Y-8163356D02*
X18069356Y-8092644D01*
X17998644Y-8092644D01*
X17998644Y-8163356D01*
X18069356Y-8163356D01*
X18069356Y-8417356D02*
X18069356Y-8346644D01*
X17998644Y-8346644D01*
X17998644Y-8417356D01*
X18069356Y-8417356D01*
X18831356Y-9687356D02*
X18831356Y-9616644D01*
X18760644Y-9616644D01*
X18760644Y-9687356D01*
X18831356Y-9687356D01*
X18831356Y-9941356D02*
X18831356Y-9870644D01*
X18760644Y-9870644D01*
X18760644Y-9941356D01*
X18831356Y-9941356D01*
X18831356Y-10195356D02*
X18831356Y-10124644D01*
X18760644Y-10124644D01*
X18760644Y-10195356D01*
X18831356Y-10195356D01*
X18831356Y-10449356D02*
X18831356Y-10378644D01*
X18760644Y-10378644D01*
X18760644Y-10449356D01*
X18831356Y-10449356D01*
D13*
X9652000Y-7719949D02*
X9751949Y-7620000D01*
X9652000Y-7520051D01*
X9552051Y-7620000D01*
X9652000Y-7719949D01*
X9652000Y-10767949D02*
X9751949Y-10668000D01*
X9652000Y-10568051D01*
X9552051Y-10668000D01*
X9652000Y-10767949D01*
X12446000Y-10767949D02*
X12545949Y-10668000D01*
X12446000Y-10568051D01*
X12346051Y-10668000D01*
X12446000Y-10767949D01*
X15748000Y-7719949D02*
X15847949Y-7620000D01*
X15748000Y-7520051D01*
X15648051Y-7620000D01*
X15748000Y-7719949D01*
X19304000Y-7719949D02*
X19403949Y-7620000D01*
X19304000Y-7520051D01*
X19204051Y-7620000D01*
X19304000Y-7719949D01*
X19304000Y-10767949D02*
X19403949Y-10668000D01*
X19304000Y-10568051D01*
X19204051Y-10668000D01*
X19304000Y-10767949D01*
D11*
X9402277Y-11489984D02*
X9402277Y-11289984D01*
X9402277Y-11289984D02*
X9449896Y-11289984D01*
X9449896Y-11289984D02*
X9478467Y-11299508D01*
X9478467Y-11299508D02*
X9497515Y-11318555D01*
X9497515Y-11318555D02*
X9507039Y-11337603D01*
X9507039Y-11337603D02*
X9516563Y-11375698D01*
X9516563Y-11375698D02*
X9516563Y-11404269D01*
X9516563Y-11404269D02*
X9507039Y-11442365D01*
X9507039Y-11442365D02*
X9497515Y-11461412D01*
X9497515Y-11461412D02*
X9478467Y-11480460D01*
X9478467Y-11480460D02*
X9449896Y-11489984D01*
X9449896Y-11489984D02*
X9402277Y-11489984D01*
X9602277Y-11489984D02*
X9602277Y-11356650D01*
X9602277Y-11394746D02*
X9611801Y-11375698D01*
X9611801Y-11375698D02*
X9621324Y-11366174D01*
X9621324Y-11366174D02*
X9640372Y-11356650D01*
X9640372Y-11356650D02*
X9659420Y-11356650D01*
X9726086Y-11489984D02*
X9726086Y-11356650D01*
X9726086Y-11289984D02*
X9716563Y-11299508D01*
X9716563Y-11299508D02*
X9726086Y-11309031D01*
X9726086Y-11309031D02*
X9735610Y-11299508D01*
X9735610Y-11299508D02*
X9726086Y-11289984D01*
X9726086Y-11289984D02*
X9726086Y-11309031D01*
X9849896Y-11489984D02*
X9830848Y-11480460D01*
X9830848Y-11480460D02*
X9821324Y-11461412D01*
X9821324Y-11461412D02*
X9821324Y-11289984D01*
X9954658Y-11489984D02*
X9935610Y-11480460D01*
X9935610Y-11480460D02*
X9926086Y-11461412D01*
X9926086Y-11461412D02*
X9926086Y-11289984D01*
X10183229Y-11489984D02*
X10183229Y-11289984D01*
X10183229Y-11289984D02*
X10249896Y-11432841D01*
X10249896Y-11432841D02*
X10316563Y-11289984D01*
X10316563Y-11289984D02*
X10316563Y-11489984D01*
X10497515Y-11489984D02*
X10497515Y-11385222D01*
X10497515Y-11385222D02*
X10487991Y-11366174D01*
X10487991Y-11366174D02*
X10468944Y-11356650D01*
X10468944Y-11356650D02*
X10430848Y-11356650D01*
X10430848Y-11356650D02*
X10411801Y-11366174D01*
X10497515Y-11480460D02*
X10478467Y-11489984D01*
X10478467Y-11489984D02*
X10430848Y-11489984D01*
X10430848Y-11489984D02*
X10411801Y-11480460D01*
X10411801Y-11480460D02*
X10402277Y-11461412D01*
X10402277Y-11461412D02*
X10402277Y-11442365D01*
X10402277Y-11442365D02*
X10411801Y-11423317D01*
X10411801Y-11423317D02*
X10430848Y-11413793D01*
X10430848Y-11413793D02*
X10478467Y-11413793D01*
X10478467Y-11413793D02*
X10497515Y-11404269D01*
X10592753Y-11356650D02*
X10592753Y-11556650D01*
X10592753Y-11366174D02*
X10611801Y-11356650D01*
X10611801Y-11356650D02*
X10649896Y-11356650D01*
X10649896Y-11356650D02*
X10668944Y-11366174D01*
X10668944Y-11366174D02*
X10678467Y-11375698D01*
X10678467Y-11375698D02*
X10687991Y-11394746D01*
X10687991Y-11394746D02*
X10687991Y-11451888D01*
X10687991Y-11451888D02*
X10678467Y-11470936D01*
X10678467Y-11470936D02*
X10668944Y-11480460D01*
X10668944Y-11480460D02*
X10649896Y-11489984D01*
X10649896Y-11489984D02*
X10611801Y-11489984D01*
X10611801Y-11489984D02*
X10592753Y-11480460D01*
X10773705Y-11470936D02*
X10783229Y-11480460D01*
X10783229Y-11480460D02*
X10773705Y-11489984D01*
X10773705Y-11489984D02*
X10764182Y-11480460D01*
X10764182Y-11480460D02*
X10773705Y-11470936D01*
X10773705Y-11470936D02*
X10773705Y-11489984D01*
X10773705Y-11366174D02*
X10783229Y-11375698D01*
X10783229Y-11375698D02*
X10773705Y-11385222D01*
X10773705Y-11385222D02*
X10764182Y-11375698D01*
X10764182Y-11375698D02*
X10773705Y-11366174D01*
X10773705Y-11366174D02*
X10773705Y-11385222D01*
D12*
X9101500Y-11798500D02*
X9141500Y-11838500D01*
X9141500Y-11798500D02*
X9101500Y-11838500D01*
D11*
X9440372Y-11709984D02*
X9459420Y-11709984D01*
X9459420Y-11709984D02*
X9478467Y-11719508D01*
X9478467Y-11719508D02*
X9487991Y-11729031D01*
X9487991Y-11729031D02*
X9497515Y-11748079D01*
X9497515Y-11748079D02*
X9507039Y-11786174D01*
X9507039Y-11786174D02*
X9507039Y-11833793D01*
X9507039Y-11833793D02*
X9497515Y-11871888D01*
X9497515Y-11871888D02*
X9487991Y-11890936D01*
X9487991Y-11890936D02*
X9478467Y-11900460D01*
X9478467Y-11900460D02*
X9459420Y-11909984D01*
X9459420Y-11909984D02*
X9440372Y-11909984D01*
X9440372Y-11909984D02*
X9421324Y-11900460D01*
X9421324Y-11900460D02*
X9411801Y-11890936D01*
X9411801Y-11890936D02*
X9402277Y-11871888D01*
X9402277Y-11871888D02*
X9392753Y-11833793D01*
X9392753Y-11833793D02*
X9392753Y-11786174D01*
X9392753Y-11786174D02*
X9402277Y-11748079D01*
X9402277Y-11748079D02*
X9411801Y-11729031D01*
X9411801Y-11729031D02*
X9421324Y-11719508D01*
X9421324Y-11719508D02*
X9440372Y-11709984D01*
X9592753Y-11890936D02*
X9602277Y-11900460D01*
X9602277Y-11900460D02*
X9592753Y-11909984D01*
X9592753Y-11909984D02*
X9583229Y-11900460D01*
X9583229Y-11900460D02*
X9592753Y-11890936D01*
X9592753Y-11890936D02*
X9592753Y-11909984D01*
X9773705Y-11776650D02*
X9773705Y-11909984D01*
X9726086Y-11700460D02*
X9678467Y-11843317D01*
X9678467Y-11843317D02*
X9802277Y-11843317D01*
X9916563Y-11709984D02*
X9935610Y-11709984D01*
X9935610Y-11709984D02*
X9954658Y-11719508D01*
X9954658Y-11719508D02*
X9964182Y-11729031D01*
X9964182Y-11729031D02*
X9973705Y-11748079D01*
X9973705Y-11748079D02*
X9983229Y-11786174D01*
X9983229Y-11786174D02*
X9983229Y-11833793D01*
X9983229Y-11833793D02*
X9973705Y-11871888D01*
X9973705Y-11871888D02*
X9964182Y-11890936D01*
X9964182Y-11890936D02*
X9954658Y-11900460D01*
X9954658Y-11900460D02*
X9935610Y-11909984D01*
X9935610Y-11909984D02*
X9916563Y-11909984D01*
X9916563Y-11909984D02*
X9897515Y-11900460D01*
X9897515Y-11900460D02*
X9887991Y-11890936D01*
X9887991Y-11890936D02*
X9878467Y-11871888D01*
X9878467Y-11871888D02*
X9868944Y-11833793D01*
X9868944Y-11833793D02*
X9868944Y-11786174D01*
X9868944Y-11786174D02*
X9878467Y-11748079D01*
X9878467Y-11748079D02*
X9887991Y-11729031D01*
X9887991Y-11729031D02*
X9897515Y-11719508D01*
X9897515Y-11719508D02*
X9916563Y-11709984D01*
X10107039Y-11709984D02*
X10126086Y-11709984D01*
X10126086Y-11709984D02*
X10145134Y-11719508D01*
X10145134Y-11719508D02*
X10154658Y-11729031D01*
X10154658Y-11729031D02*
X10164182Y-11748079D01*
X10164182Y-11748079D02*
X10173705Y-11786174D01*
X10173705Y-11786174D02*
X10173705Y-11833793D01*
X10173705Y-11833793D02*
X10164182Y-11871888D01*
X10164182Y-11871888D02*
X10154658Y-11890936D01*
X10154658Y-11890936D02*
X10145134Y-11900460D01*
X10145134Y-11900460D02*
X10126086Y-11909984D01*
X10126086Y-11909984D02*
X10107039Y-11909984D01*
X10107039Y-11909984D02*
X10087991Y-11900460D01*
X10087991Y-11900460D02*
X10078467Y-11890936D01*
X10078467Y-11890936D02*
X10068944Y-11871888D01*
X10068944Y-11871888D02*
X10059420Y-11833793D01*
X10059420Y-11833793D02*
X10059420Y-11786174D01*
X10059420Y-11786174D02*
X10068944Y-11748079D01*
X10068944Y-11748079D02*
X10078467Y-11729031D01*
X10078467Y-11729031D02*
X10087991Y-11719508D01*
X10087991Y-11719508D02*
X10107039Y-11709984D01*
X10259420Y-11909984D02*
X10259420Y-11776650D01*
X10259420Y-11795698D02*
X10268944Y-11786174D01*
X10268944Y-11786174D02*
X10287991Y-11776650D01*
X10287991Y-11776650D02*
X10316563Y-11776650D01*
X10316563Y-11776650D02*
X10335610Y-11786174D01*
X10335610Y-11786174D02*
X10345134Y-11805222D01*
X10345134Y-11805222D02*
X10345134Y-11909984D01*
X10345134Y-11805222D02*
X10354658Y-11786174D01*
X10354658Y-11786174D02*
X10373705Y-11776650D01*
X10373705Y-11776650D02*
X10402277Y-11776650D01*
X10402277Y-11776650D02*
X10421325Y-11786174D01*
X10421325Y-11786174D02*
X10430848Y-11805222D01*
X10430848Y-11805222D02*
X10430848Y-11909984D01*
X10526086Y-11909984D02*
X10526086Y-11776650D01*
X10526086Y-11795698D02*
X10535610Y-11786174D01*
X10535610Y-11786174D02*
X10554658Y-11776650D01*
X10554658Y-11776650D02*
X10583229Y-11776650D01*
X10583229Y-11776650D02*
X10602277Y-11786174D01*
X10602277Y-11786174D02*
X10611801Y-11805222D01*
X10611801Y-11805222D02*
X10611801Y-11909984D01*
X10611801Y-11805222D02*
X10621325Y-11786174D01*
X10621325Y-11786174D02*
X10640372Y-11776650D01*
X10640372Y-11776650D02*
X10668944Y-11776650D01*
X10668944Y-11776650D02*
X10687991Y-11786174D01*
X10687991Y-11786174D02*
X10697515Y-11805222D01*
X10697515Y-11805222D02*
X10697515Y-11909984D01*
X11087991Y-11700460D02*
X10916563Y-11957603D01*
X11345134Y-11709984D02*
X11364182Y-11709984D01*
X11364182Y-11709984D02*
X11383229Y-11719508D01*
X11383229Y-11719508D02*
X11392753Y-11729031D01*
X11392753Y-11729031D02*
X11402277Y-11748079D01*
X11402277Y-11748079D02*
X11411801Y-11786174D01*
X11411801Y-11786174D02*
X11411801Y-11833793D01*
X11411801Y-11833793D02*
X11402277Y-11871888D01*
X11402277Y-11871888D02*
X11392753Y-11890936D01*
X11392753Y-11890936D02*
X11383229Y-11900460D01*
X11383229Y-11900460D02*
X11364182Y-11909984D01*
X11364182Y-11909984D02*
X11345134Y-11909984D01*
X11345134Y-11909984D02*
X11326086Y-11900460D01*
X11326086Y-11900460D02*
X11316563Y-11890936D01*
X11316563Y-11890936D02*
X11307039Y-11871888D01*
X11307039Y-11871888D02*
X11297515Y-11833793D01*
X11297515Y-11833793D02*
X11297515Y-11786174D01*
X11297515Y-11786174D02*
X11307039Y-11748079D01*
X11307039Y-11748079D02*
X11316563Y-11729031D01*
X11316563Y-11729031D02*
X11326086Y-11719508D01*
X11326086Y-11719508D02*
X11345134Y-11709984D01*
X11497515Y-11890936D02*
X11507039Y-11900460D01*
X11507039Y-11900460D02*
X11497515Y-11909984D01*
X11497515Y-11909984D02*
X11487991Y-11900460D01*
X11487991Y-11900460D02*
X11497515Y-11890936D01*
X11497515Y-11890936D02*
X11497515Y-11909984D01*
X11630848Y-11709984D02*
X11649896Y-11709984D01*
X11649896Y-11709984D02*
X11668944Y-11719508D01*
X11668944Y-11719508D02*
X11678467Y-11729031D01*
X11678467Y-11729031D02*
X11687991Y-11748079D01*
X11687991Y-11748079D02*
X11697515Y-11786174D01*
X11697515Y-11786174D02*
X11697515Y-11833793D01*
X11697515Y-11833793D02*
X11687991Y-11871888D01*
X11687991Y-11871888D02*
X11678467Y-11890936D01*
X11678467Y-11890936D02*
X11668944Y-11900460D01*
X11668944Y-11900460D02*
X11649896Y-11909984D01*
X11649896Y-11909984D02*
X11630848Y-11909984D01*
X11630848Y-11909984D02*
X11611801Y-11900460D01*
X11611801Y-11900460D02*
X11602277Y-11890936D01*
X11602277Y-11890936D02*
X11592753Y-11871888D01*
X11592753Y-11871888D02*
X11583229Y-11833793D01*
X11583229Y-11833793D02*
X11583229Y-11786174D01*
X11583229Y-11786174D02*
X11592753Y-11748079D01*
X11592753Y-11748079D02*
X11602277Y-11729031D01*
X11602277Y-11729031D02*
X11611801Y-11719508D01*
X11611801Y-11719508D02*
X11630848Y-11709984D01*
X11887991Y-11909984D02*
X11773706Y-11909984D01*
X11830848Y-11909984D02*
X11830848Y-11709984D01*
X11830848Y-11709984D02*
X11811801Y-11738555D01*
X11811801Y-11738555D02*
X11792753Y-11757603D01*
X11792753Y-11757603D02*
X11773706Y-11767127D01*
X12068944Y-11709984D02*
X11973706Y-11709984D01*
X11973706Y-11709984D02*
X11964182Y-11805222D01*
X11964182Y-11805222D02*
X11973706Y-11795698D01*
X11973706Y-11795698D02*
X11992753Y-11786174D01*
X11992753Y-11786174D02*
X12040372Y-11786174D01*
X12040372Y-11786174D02*
X12059420Y-11795698D01*
X12059420Y-11795698D02*
X12068944Y-11805222D01*
X12068944Y-11805222D02*
X12078467Y-11824269D01*
X12078467Y-11824269D02*
X12078467Y-11871888D01*
X12078467Y-11871888D02*
X12068944Y-11890936D01*
X12068944Y-11890936D02*
X12059420Y-11900460D01*
X12059420Y-11900460D02*
X12040372Y-11909984D01*
X12040372Y-11909984D02*
X11992753Y-11909984D01*
X11992753Y-11909984D02*
X11973706Y-11900460D01*
X11973706Y-11900460D02*
X11964182Y-11890936D01*
X12145134Y-11709984D02*
X12278467Y-11709984D01*
X12278467Y-11709984D02*
X12192753Y-11909984D01*
X12345134Y-11709984D02*
X12345134Y-11748079D01*
X12421325Y-11709984D02*
X12421325Y-11748079D01*
X12716563Y-11986174D02*
X12707039Y-11976650D01*
X12707039Y-11976650D02*
X12687991Y-11948079D01*
X12687991Y-11948079D02*
X12678468Y-11929031D01*
X12678468Y-11929031D02*
X12668944Y-11900460D01*
X12668944Y-11900460D02*
X12659420Y-11852841D01*
X12659420Y-11852841D02*
X12659420Y-11814746D01*
X12659420Y-11814746D02*
X12668944Y-11767127D01*
X12668944Y-11767127D02*
X12678468Y-11738555D01*
X12678468Y-11738555D02*
X12687991Y-11719508D01*
X12687991Y-11719508D02*
X12707039Y-11690936D01*
X12707039Y-11690936D02*
X12716563Y-11681412D01*
X12773706Y-11709984D02*
X12907039Y-11709984D01*
X12907039Y-11709984D02*
X12821325Y-11909984D01*
X13135610Y-11909984D02*
X13135610Y-11709984D01*
X13221325Y-11909984D02*
X13221325Y-11805222D01*
X13221325Y-11805222D02*
X13211801Y-11786174D01*
X13211801Y-11786174D02*
X13192753Y-11776650D01*
X13192753Y-11776650D02*
X13164182Y-11776650D01*
X13164182Y-11776650D02*
X13145134Y-11786174D01*
X13145134Y-11786174D02*
X13135610Y-11795698D01*
X13345134Y-11909984D02*
X13326087Y-11900460D01*
X13326087Y-11900460D02*
X13316563Y-11890936D01*
X13316563Y-11890936D02*
X13307039Y-11871888D01*
X13307039Y-11871888D02*
X13307039Y-11814746D01*
X13307039Y-11814746D02*
X13316563Y-11795698D01*
X13316563Y-11795698D02*
X13326087Y-11786174D01*
X13326087Y-11786174D02*
X13345134Y-11776650D01*
X13345134Y-11776650D02*
X13373706Y-11776650D01*
X13373706Y-11776650D02*
X13392753Y-11786174D01*
X13392753Y-11786174D02*
X13402277Y-11795698D01*
X13402277Y-11795698D02*
X13411801Y-11814746D01*
X13411801Y-11814746D02*
X13411801Y-11871888D01*
X13411801Y-11871888D02*
X13402277Y-11890936D01*
X13402277Y-11890936D02*
X13392753Y-11900460D01*
X13392753Y-11900460D02*
X13373706Y-11909984D01*
X13373706Y-11909984D02*
X13345134Y-11909984D01*
X13526087Y-11909984D02*
X13507039Y-11900460D01*
X13507039Y-11900460D02*
X13497515Y-11881412D01*
X13497515Y-11881412D02*
X13497515Y-11709984D01*
X13678468Y-11900460D02*
X13659420Y-11909984D01*
X13659420Y-11909984D02*
X13621325Y-11909984D01*
X13621325Y-11909984D02*
X13602277Y-11900460D01*
X13602277Y-11900460D02*
X13592753Y-11881412D01*
X13592753Y-11881412D02*
X13592753Y-11805222D01*
X13592753Y-11805222D02*
X13602277Y-11786174D01*
X13602277Y-11786174D02*
X13621325Y-11776650D01*
X13621325Y-11776650D02*
X13659420Y-11776650D01*
X13659420Y-11776650D02*
X13678468Y-11786174D01*
X13678468Y-11786174D02*
X13687991Y-11805222D01*
X13687991Y-11805222D02*
X13687991Y-11824269D01*
X13687991Y-11824269D02*
X13592753Y-11843317D01*
X13764182Y-11900460D02*
X13783230Y-11909984D01*
X13783230Y-11909984D02*
X13821325Y-11909984D01*
X13821325Y-11909984D02*
X13840372Y-11900460D01*
X13840372Y-11900460D02*
X13849896Y-11881412D01*
X13849896Y-11881412D02*
X13849896Y-11871888D01*
X13849896Y-11871888D02*
X13840372Y-11852841D01*
X13840372Y-11852841D02*
X13821325Y-11843317D01*
X13821325Y-11843317D02*
X13792753Y-11843317D01*
X13792753Y-11843317D02*
X13773706Y-11833793D01*
X13773706Y-11833793D02*
X13764182Y-11814746D01*
X13764182Y-11814746D02*
X13764182Y-11805222D01*
X13764182Y-11805222D02*
X13773706Y-11786174D01*
X13773706Y-11786174D02*
X13792753Y-11776650D01*
X13792753Y-11776650D02*
X13821325Y-11776650D01*
X13821325Y-11776650D02*
X13840372Y-11786174D01*
X13916563Y-11986174D02*
X13926087Y-11976650D01*
X13926087Y-11976650D02*
X13945134Y-11948079D01*
X13945134Y-11948079D02*
X13954658Y-11929031D01*
X13954658Y-11929031D02*
X13964182Y-11900460D01*
X13964182Y-11900460D02*
X13973706Y-11852841D01*
X13973706Y-11852841D02*
X13973706Y-11814746D01*
X13973706Y-11814746D02*
X13964182Y-11767127D01*
X13964182Y-11767127D02*
X13954658Y-11738555D01*
X13954658Y-11738555D02*
X13945134Y-11719508D01*
X13945134Y-11719508D02*
X13926087Y-11690936D01*
X13926087Y-11690936D02*
X13916563Y-11681412D01*
D12*
X9141500Y-12082500D02*
G75*
G02*
X9071500Y-12082500I-35000J0D01*
G01*
X9071500Y-12082500D02*
G75*
G02*
X9141500Y-12082500I35000J0D01*
G01*
D11*
X9440372Y-11973984D02*
X9459420Y-11973984D01*
X9459420Y-11973984D02*
X9478467Y-11983508D01*
X9478467Y-11983508D02*
X9487991Y-11993031D01*
X9487991Y-11993031D02*
X9497515Y-12012079D01*
X9497515Y-12012079D02*
X9507039Y-12050174D01*
X9507039Y-12050174D02*
X9507039Y-12097793D01*
X9507039Y-12097793D02*
X9497515Y-12135888D01*
X9497515Y-12135888D02*
X9487991Y-12154936D01*
X9487991Y-12154936D02*
X9478467Y-12164460D01*
X9478467Y-12164460D02*
X9459420Y-12173984D01*
X9459420Y-12173984D02*
X9440372Y-12173984D01*
X9440372Y-12173984D02*
X9421324Y-12164460D01*
X9421324Y-12164460D02*
X9411801Y-12154936D01*
X9411801Y-12154936D02*
X9402277Y-12135888D01*
X9402277Y-12135888D02*
X9392753Y-12097793D01*
X9392753Y-12097793D02*
X9392753Y-12050174D01*
X9392753Y-12050174D02*
X9402277Y-12012079D01*
X9402277Y-12012079D02*
X9411801Y-11993031D01*
X9411801Y-11993031D02*
X9421324Y-11983508D01*
X9421324Y-11983508D02*
X9440372Y-11973984D01*
X9592753Y-12154936D02*
X9602277Y-12164460D01*
X9602277Y-12164460D02*
X9592753Y-12173984D01*
X9592753Y-12173984D02*
X9583229Y-12164460D01*
X9583229Y-12164460D02*
X9592753Y-12154936D01*
X9592753Y-12154936D02*
X9592753Y-12173984D01*
X9668944Y-11973984D02*
X9802277Y-11973984D01*
X9802277Y-11973984D02*
X9716563Y-12173984D01*
X9916563Y-11973984D02*
X9935610Y-11973984D01*
X9935610Y-11973984D02*
X9954658Y-11983508D01*
X9954658Y-11983508D02*
X9964182Y-11993031D01*
X9964182Y-11993031D02*
X9973705Y-12012079D01*
X9973705Y-12012079D02*
X9983229Y-12050174D01*
X9983229Y-12050174D02*
X9983229Y-12097793D01*
X9983229Y-12097793D02*
X9973705Y-12135888D01*
X9973705Y-12135888D02*
X9964182Y-12154936D01*
X9964182Y-12154936D02*
X9954658Y-12164460D01*
X9954658Y-12164460D02*
X9935610Y-12173984D01*
X9935610Y-12173984D02*
X9916563Y-12173984D01*
X9916563Y-12173984D02*
X9897515Y-12164460D01*
X9897515Y-12164460D02*
X9887991Y-12154936D01*
X9887991Y-12154936D02*
X9878467Y-12135888D01*
X9878467Y-12135888D02*
X9868944Y-12097793D01*
X9868944Y-12097793D02*
X9868944Y-12050174D01*
X9868944Y-12050174D02*
X9878467Y-12012079D01*
X9878467Y-12012079D02*
X9887991Y-11993031D01*
X9887991Y-11993031D02*
X9897515Y-11983508D01*
X9897515Y-11983508D02*
X9916563Y-11973984D01*
X10107039Y-11973984D02*
X10126086Y-11973984D01*
X10126086Y-11973984D02*
X10145134Y-11983508D01*
X10145134Y-11983508D02*
X10154658Y-11993031D01*
X10154658Y-11993031D02*
X10164182Y-12012079D01*
X10164182Y-12012079D02*
X10173705Y-12050174D01*
X10173705Y-12050174D02*
X10173705Y-12097793D01*
X10173705Y-12097793D02*
X10164182Y-12135888D01*
X10164182Y-12135888D02*
X10154658Y-12154936D01*
X10154658Y-12154936D02*
X10145134Y-12164460D01*
X10145134Y-12164460D02*
X10126086Y-12173984D01*
X10126086Y-12173984D02*
X10107039Y-12173984D01*
X10107039Y-12173984D02*
X10087991Y-12164460D01*
X10087991Y-12164460D02*
X10078467Y-12154936D01*
X10078467Y-12154936D02*
X10068944Y-12135888D01*
X10068944Y-12135888D02*
X10059420Y-12097793D01*
X10059420Y-12097793D02*
X10059420Y-12050174D01*
X10059420Y-12050174D02*
X10068944Y-12012079D01*
X10068944Y-12012079D02*
X10078467Y-11993031D01*
X10078467Y-11993031D02*
X10087991Y-11983508D01*
X10087991Y-11983508D02*
X10107039Y-11973984D01*
X10259420Y-12173984D02*
X10259420Y-12040650D01*
X10259420Y-12059698D02*
X10268944Y-12050174D01*
X10268944Y-12050174D02*
X10287991Y-12040650D01*
X10287991Y-12040650D02*
X10316563Y-12040650D01*
X10316563Y-12040650D02*
X10335610Y-12050174D01*
X10335610Y-12050174D02*
X10345134Y-12069222D01*
X10345134Y-12069222D02*
X10345134Y-12173984D01*
X10345134Y-12069222D02*
X10354658Y-12050174D01*
X10354658Y-12050174D02*
X10373705Y-12040650D01*
X10373705Y-12040650D02*
X10402277Y-12040650D01*
X10402277Y-12040650D02*
X10421325Y-12050174D01*
X10421325Y-12050174D02*
X10430848Y-12069222D01*
X10430848Y-12069222D02*
X10430848Y-12173984D01*
X10526086Y-12173984D02*
X10526086Y-12040650D01*
X10526086Y-12059698D02*
X10535610Y-12050174D01*
X10535610Y-12050174D02*
X10554658Y-12040650D01*
X10554658Y-12040650D02*
X10583229Y-12040650D01*
X10583229Y-12040650D02*
X10602277Y-12050174D01*
X10602277Y-12050174D02*
X10611801Y-12069222D01*
X10611801Y-12069222D02*
X10611801Y-12173984D01*
X10611801Y-12069222D02*
X10621325Y-12050174D01*
X10621325Y-12050174D02*
X10640372Y-12040650D01*
X10640372Y-12040650D02*
X10668944Y-12040650D01*
X10668944Y-12040650D02*
X10687991Y-12050174D01*
X10687991Y-12050174D02*
X10697515Y-12069222D01*
X10697515Y-12069222D02*
X10697515Y-12173984D01*
X11087991Y-11964460D02*
X10916563Y-12221603D01*
X11345134Y-11973984D02*
X11364182Y-11973984D01*
X11364182Y-11973984D02*
X11383229Y-11983508D01*
X11383229Y-11983508D02*
X11392753Y-11993031D01*
X11392753Y-11993031D02*
X11402277Y-12012079D01*
X11402277Y-12012079D02*
X11411801Y-12050174D01*
X11411801Y-12050174D02*
X11411801Y-12097793D01*
X11411801Y-12097793D02*
X11402277Y-12135888D01*
X11402277Y-12135888D02*
X11392753Y-12154936D01*
X11392753Y-12154936D02*
X11383229Y-12164460D01*
X11383229Y-12164460D02*
X11364182Y-12173984D01*
X11364182Y-12173984D02*
X11345134Y-12173984D01*
X11345134Y-12173984D02*
X11326086Y-12164460D01*
X11326086Y-12164460D02*
X11316563Y-12154936D01*
X11316563Y-12154936D02*
X11307039Y-12135888D01*
X11307039Y-12135888D02*
X11297515Y-12097793D01*
X11297515Y-12097793D02*
X11297515Y-12050174D01*
X11297515Y-12050174D02*
X11307039Y-12012079D01*
X11307039Y-12012079D02*
X11316563Y-11993031D01*
X11316563Y-11993031D02*
X11326086Y-11983508D01*
X11326086Y-11983508D02*
X11345134Y-11973984D01*
X11497515Y-12154936D02*
X11507039Y-12164460D01*
X11507039Y-12164460D02*
X11497515Y-12173984D01*
X11497515Y-12173984D02*
X11487991Y-12164460D01*
X11487991Y-12164460D02*
X11497515Y-12154936D01*
X11497515Y-12154936D02*
X11497515Y-12173984D01*
X11630848Y-11973984D02*
X11649896Y-11973984D01*
X11649896Y-11973984D02*
X11668944Y-11983508D01*
X11668944Y-11983508D02*
X11678467Y-11993031D01*
X11678467Y-11993031D02*
X11687991Y-12012079D01*
X11687991Y-12012079D02*
X11697515Y-12050174D01*
X11697515Y-12050174D02*
X11697515Y-12097793D01*
X11697515Y-12097793D02*
X11687991Y-12135888D01*
X11687991Y-12135888D02*
X11678467Y-12154936D01*
X11678467Y-12154936D02*
X11668944Y-12164460D01*
X11668944Y-12164460D02*
X11649896Y-12173984D01*
X11649896Y-12173984D02*
X11630848Y-12173984D01*
X11630848Y-12173984D02*
X11611801Y-12164460D01*
X11611801Y-12164460D02*
X11602277Y-12154936D01*
X11602277Y-12154936D02*
X11592753Y-12135888D01*
X11592753Y-12135888D02*
X11583229Y-12097793D01*
X11583229Y-12097793D02*
X11583229Y-12050174D01*
X11583229Y-12050174D02*
X11592753Y-12012079D01*
X11592753Y-12012079D02*
X11602277Y-11993031D01*
X11602277Y-11993031D02*
X11611801Y-11983508D01*
X11611801Y-11983508D02*
X11630848Y-11973984D01*
X11773706Y-11993031D02*
X11783229Y-11983508D01*
X11783229Y-11983508D02*
X11802277Y-11973984D01*
X11802277Y-11973984D02*
X11849896Y-11973984D01*
X11849896Y-11973984D02*
X11868944Y-11983508D01*
X11868944Y-11983508D02*
X11878467Y-11993031D01*
X11878467Y-11993031D02*
X11887991Y-12012079D01*
X11887991Y-12012079D02*
X11887991Y-12031127D01*
X11887991Y-12031127D02*
X11878467Y-12059698D01*
X11878467Y-12059698D02*
X11764182Y-12173984D01*
X11764182Y-12173984D02*
X11887991Y-12173984D01*
X11954658Y-11973984D02*
X12087991Y-11973984D01*
X12087991Y-11973984D02*
X12002277Y-12173984D01*
X12249896Y-11973984D02*
X12211801Y-11973984D01*
X12211801Y-11973984D02*
X12192753Y-11983508D01*
X12192753Y-11983508D02*
X12183229Y-11993031D01*
X12183229Y-11993031D02*
X12164182Y-12021603D01*
X12164182Y-12021603D02*
X12154658Y-12059698D01*
X12154658Y-12059698D02*
X12154658Y-12135888D01*
X12154658Y-12135888D02*
X12164182Y-12154936D01*
X12164182Y-12154936D02*
X12173706Y-12164460D01*
X12173706Y-12164460D02*
X12192753Y-12173984D01*
X12192753Y-12173984D02*
X12230848Y-12173984D01*
X12230848Y-12173984D02*
X12249896Y-12164460D01*
X12249896Y-12164460D02*
X12259420Y-12154936D01*
X12259420Y-12154936D02*
X12268944Y-12135888D01*
X12268944Y-12135888D02*
X12268944Y-12088269D01*
X12268944Y-12088269D02*
X12259420Y-12069222D01*
X12259420Y-12069222D02*
X12249896Y-12059698D01*
X12249896Y-12059698D02*
X12230848Y-12050174D01*
X12230848Y-12050174D02*
X12192753Y-12050174D01*
X12192753Y-12050174D02*
X12173706Y-12059698D01*
X12173706Y-12059698D02*
X12164182Y-12069222D01*
X12164182Y-12069222D02*
X12154658Y-12088269D01*
X12345134Y-11973984D02*
X12345134Y-12012079D01*
X12421325Y-11973984D02*
X12421325Y-12012079D01*
X12716563Y-12250174D02*
X12707039Y-12240650D01*
X12707039Y-12240650D02*
X12687991Y-12212079D01*
X12687991Y-12212079D02*
X12678468Y-12193031D01*
X12678468Y-12193031D02*
X12668944Y-12164460D01*
X12668944Y-12164460D02*
X12659420Y-12116841D01*
X12659420Y-12116841D02*
X12659420Y-12078746D01*
X12659420Y-12078746D02*
X12668944Y-12031127D01*
X12668944Y-12031127D02*
X12678468Y-12002555D01*
X12678468Y-12002555D02*
X12687991Y-11983508D01*
X12687991Y-11983508D02*
X12707039Y-11954936D01*
X12707039Y-11954936D02*
X12716563Y-11945412D01*
X12783229Y-11993031D02*
X12792753Y-11983508D01*
X12792753Y-11983508D02*
X12811801Y-11973984D01*
X12811801Y-11973984D02*
X12859420Y-11973984D01*
X12859420Y-11973984D02*
X12878468Y-11983508D01*
X12878468Y-11983508D02*
X12887991Y-11993031D01*
X12887991Y-11993031D02*
X12897515Y-12012079D01*
X12897515Y-12012079D02*
X12897515Y-12031127D01*
X12897515Y-12031127D02*
X12887991Y-12059698D01*
X12887991Y-12059698D02*
X12773706Y-12173984D01*
X12773706Y-12173984D02*
X12897515Y-12173984D01*
X13135610Y-12173984D02*
X13135610Y-11973984D01*
X13221325Y-12173984D02*
X13221325Y-12069222D01*
X13221325Y-12069222D02*
X13211801Y-12050174D01*
X13211801Y-12050174D02*
X13192753Y-12040650D01*
X13192753Y-12040650D02*
X13164182Y-12040650D01*
X13164182Y-12040650D02*
X13145134Y-12050174D01*
X13145134Y-12050174D02*
X13135610Y-12059698D01*
X13345134Y-12173984D02*
X13326087Y-12164460D01*
X13326087Y-12164460D02*
X13316563Y-12154936D01*
X13316563Y-12154936D02*
X13307039Y-12135888D01*
X13307039Y-12135888D02*
X13307039Y-12078746D01*
X13307039Y-12078746D02*
X13316563Y-12059698D01*
X13316563Y-12059698D02*
X13326087Y-12050174D01*
X13326087Y-12050174D02*
X13345134Y-12040650D01*
X13345134Y-12040650D02*
X13373706Y-12040650D01*
X13373706Y-12040650D02*
X13392753Y-12050174D01*
X13392753Y-12050174D02*
X13402277Y-12059698D01*
X13402277Y-12059698D02*
X13411801Y-12078746D01*
X13411801Y-12078746D02*
X13411801Y-12135888D01*
X13411801Y-12135888D02*
X13402277Y-12154936D01*
X13402277Y-12154936D02*
X13392753Y-12164460D01*
X13392753Y-12164460D02*
X13373706Y-12173984D01*
X13373706Y-12173984D02*
X13345134Y-12173984D01*
X13526087Y-12173984D02*
X13507039Y-12164460D01*
X13507039Y-12164460D02*
X13497515Y-12145412D01*
X13497515Y-12145412D02*
X13497515Y-11973984D01*
X13678468Y-12164460D02*
X13659420Y-12173984D01*
X13659420Y-12173984D02*
X13621325Y-12173984D01*
X13621325Y-12173984D02*
X13602277Y-12164460D01*
X13602277Y-12164460D02*
X13592753Y-12145412D01*
X13592753Y-12145412D02*
X13592753Y-12069222D01*
X13592753Y-12069222D02*
X13602277Y-12050174D01*
X13602277Y-12050174D02*
X13621325Y-12040650D01*
X13621325Y-12040650D02*
X13659420Y-12040650D01*
X13659420Y-12040650D02*
X13678468Y-12050174D01*
X13678468Y-12050174D02*
X13687991Y-12069222D01*
X13687991Y-12069222D02*
X13687991Y-12088269D01*
X13687991Y-12088269D02*
X13592753Y-12107317D01*
X13764182Y-12164460D02*
X13783230Y-12173984D01*
X13783230Y-12173984D02*
X13821325Y-12173984D01*
X13821325Y-12173984D02*
X13840372Y-12164460D01*
X13840372Y-12164460D02*
X13849896Y-12145412D01*
X13849896Y-12145412D02*
X13849896Y-12135888D01*
X13849896Y-12135888D02*
X13840372Y-12116841D01*
X13840372Y-12116841D02*
X13821325Y-12107317D01*
X13821325Y-12107317D02*
X13792753Y-12107317D01*
X13792753Y-12107317D02*
X13773706Y-12097793D01*
X13773706Y-12097793D02*
X13764182Y-12078746D01*
X13764182Y-12078746D02*
X13764182Y-12069222D01*
X13764182Y-12069222D02*
X13773706Y-12050174D01*
X13773706Y-12050174D02*
X13792753Y-12040650D01*
X13792753Y-12040650D02*
X13821325Y-12040650D01*
X13821325Y-12040650D02*
X13840372Y-12050174D01*
X13916563Y-12250174D02*
X13926087Y-12240650D01*
X13926087Y-12240650D02*
X13945134Y-12212079D01*
X13945134Y-12212079D02*
X13954658Y-12193031D01*
X13954658Y-12193031D02*
X13964182Y-12164460D01*
X13964182Y-12164460D02*
X13973706Y-12116841D01*
X13973706Y-12116841D02*
X13973706Y-12078746D01*
X13973706Y-12078746D02*
X13964182Y-12031127D01*
X13964182Y-12031127D02*
X13954658Y-12002555D01*
X13954658Y-12002555D02*
X13945134Y-11983508D01*
X13945134Y-11983508D02*
X13926087Y-11954936D01*
X13926087Y-11954936D02*
X13916563Y-11945412D01*
D12*
X9103400Y-12308400D02*
X9103400Y-12384600D01*
X9065300Y-12346500D02*
X9141500Y-12346500D01*
D11*
X9440372Y-12237984D02*
X9459420Y-12237984D01*
X9459420Y-12237984D02*
X9478467Y-12247508D01*
X9478467Y-12247508D02*
X9487991Y-12257031D01*
X9487991Y-12257031D02*
X9497515Y-12276079D01*
X9497515Y-12276079D02*
X9507039Y-12314174D01*
X9507039Y-12314174D02*
X9507039Y-12361793D01*
X9507039Y-12361793D02*
X9497515Y-12399888D01*
X9497515Y-12399888D02*
X9487991Y-12418936D01*
X9487991Y-12418936D02*
X9478467Y-12428460D01*
X9478467Y-12428460D02*
X9459420Y-12437984D01*
X9459420Y-12437984D02*
X9440372Y-12437984D01*
X9440372Y-12437984D02*
X9421324Y-12428460D01*
X9421324Y-12428460D02*
X9411801Y-12418936D01*
X9411801Y-12418936D02*
X9402277Y-12399888D01*
X9402277Y-12399888D02*
X9392753Y-12361793D01*
X9392753Y-12361793D02*
X9392753Y-12314174D01*
X9392753Y-12314174D02*
X9402277Y-12276079D01*
X9402277Y-12276079D02*
X9411801Y-12257031D01*
X9411801Y-12257031D02*
X9421324Y-12247508D01*
X9421324Y-12247508D02*
X9440372Y-12237984D01*
X9592753Y-12418936D02*
X9602277Y-12428460D01*
X9602277Y-12428460D02*
X9592753Y-12437984D01*
X9592753Y-12437984D02*
X9583229Y-12428460D01*
X9583229Y-12428460D02*
X9592753Y-12418936D01*
X9592753Y-12418936D02*
X9592753Y-12437984D01*
X9668944Y-12237984D02*
X9802277Y-12237984D01*
X9802277Y-12237984D02*
X9716563Y-12437984D01*
X9964182Y-12237984D02*
X9926086Y-12237984D01*
X9926086Y-12237984D02*
X9907039Y-12247508D01*
X9907039Y-12247508D02*
X9897515Y-12257031D01*
X9897515Y-12257031D02*
X9878467Y-12285603D01*
X9878467Y-12285603D02*
X9868944Y-12323698D01*
X9868944Y-12323698D02*
X9868944Y-12399888D01*
X9868944Y-12399888D02*
X9878467Y-12418936D01*
X9878467Y-12418936D02*
X9887991Y-12428460D01*
X9887991Y-12428460D02*
X9907039Y-12437984D01*
X9907039Y-12437984D02*
X9945134Y-12437984D01*
X9945134Y-12437984D02*
X9964182Y-12428460D01*
X9964182Y-12428460D02*
X9973705Y-12418936D01*
X9973705Y-12418936D02*
X9983229Y-12399888D01*
X9983229Y-12399888D02*
X9983229Y-12352269D01*
X9983229Y-12352269D02*
X9973705Y-12333222D01*
X9973705Y-12333222D02*
X9964182Y-12323698D01*
X9964182Y-12323698D02*
X9945134Y-12314174D01*
X9945134Y-12314174D02*
X9907039Y-12314174D01*
X9907039Y-12314174D02*
X9887991Y-12323698D01*
X9887991Y-12323698D02*
X9878467Y-12333222D01*
X9878467Y-12333222D02*
X9868944Y-12352269D01*
X10059420Y-12257031D02*
X10068944Y-12247508D01*
X10068944Y-12247508D02*
X10087991Y-12237984D01*
X10087991Y-12237984D02*
X10135610Y-12237984D01*
X10135610Y-12237984D02*
X10154658Y-12247508D01*
X10154658Y-12247508D02*
X10164182Y-12257031D01*
X10164182Y-12257031D02*
X10173705Y-12276079D01*
X10173705Y-12276079D02*
X10173705Y-12295127D01*
X10173705Y-12295127D02*
X10164182Y-12323698D01*
X10164182Y-12323698D02*
X10049896Y-12437984D01*
X10049896Y-12437984D02*
X10173705Y-12437984D01*
X10259420Y-12437984D02*
X10259420Y-12304650D01*
X10259420Y-12323698D02*
X10268944Y-12314174D01*
X10268944Y-12314174D02*
X10287991Y-12304650D01*
X10287991Y-12304650D02*
X10316563Y-12304650D01*
X10316563Y-12304650D02*
X10335610Y-12314174D01*
X10335610Y-12314174D02*
X10345134Y-12333222D01*
X10345134Y-12333222D02*
X10345134Y-12437984D01*
X10345134Y-12333222D02*
X10354658Y-12314174D01*
X10354658Y-12314174D02*
X10373705Y-12304650D01*
X10373705Y-12304650D02*
X10402277Y-12304650D01*
X10402277Y-12304650D02*
X10421325Y-12314174D01*
X10421325Y-12314174D02*
X10430848Y-12333222D01*
X10430848Y-12333222D02*
X10430848Y-12437984D01*
X10526086Y-12437984D02*
X10526086Y-12304650D01*
X10526086Y-12323698D02*
X10535610Y-12314174D01*
X10535610Y-12314174D02*
X10554658Y-12304650D01*
X10554658Y-12304650D02*
X10583229Y-12304650D01*
X10583229Y-12304650D02*
X10602277Y-12314174D01*
X10602277Y-12314174D02*
X10611801Y-12333222D01*
X10611801Y-12333222D02*
X10611801Y-12437984D01*
X10611801Y-12333222D02*
X10621325Y-12314174D01*
X10621325Y-12314174D02*
X10640372Y-12304650D01*
X10640372Y-12304650D02*
X10668944Y-12304650D01*
X10668944Y-12304650D02*
X10687991Y-12314174D01*
X10687991Y-12314174D02*
X10697515Y-12333222D01*
X10697515Y-12333222D02*
X10697515Y-12437984D01*
X11087991Y-12228460D02*
X10916563Y-12485603D01*
X11345134Y-12237984D02*
X11364182Y-12237984D01*
X11364182Y-12237984D02*
X11383229Y-12247508D01*
X11383229Y-12247508D02*
X11392753Y-12257031D01*
X11392753Y-12257031D02*
X11402277Y-12276079D01*
X11402277Y-12276079D02*
X11411801Y-12314174D01*
X11411801Y-12314174D02*
X11411801Y-12361793D01*
X11411801Y-12361793D02*
X11402277Y-12399888D01*
X11402277Y-12399888D02*
X11392753Y-12418936D01*
X11392753Y-12418936D02*
X11383229Y-12428460D01*
X11383229Y-12428460D02*
X11364182Y-12437984D01*
X11364182Y-12437984D02*
X11345134Y-12437984D01*
X11345134Y-12437984D02*
X11326086Y-12428460D01*
X11326086Y-12428460D02*
X11316563Y-12418936D01*
X11316563Y-12418936D02*
X11307039Y-12399888D01*
X11307039Y-12399888D02*
X11297515Y-12361793D01*
X11297515Y-12361793D02*
X11297515Y-12314174D01*
X11297515Y-12314174D02*
X11307039Y-12276079D01*
X11307039Y-12276079D02*
X11316563Y-12257031D01*
X11316563Y-12257031D02*
X11326086Y-12247508D01*
X11326086Y-12247508D02*
X11345134Y-12237984D01*
X11497515Y-12418936D02*
X11507039Y-12428460D01*
X11507039Y-12428460D02*
X11497515Y-12437984D01*
X11497515Y-12437984D02*
X11487991Y-12428460D01*
X11487991Y-12428460D02*
X11497515Y-12418936D01*
X11497515Y-12418936D02*
X11497515Y-12437984D01*
X11630848Y-12237984D02*
X11649896Y-12237984D01*
X11649896Y-12237984D02*
X11668944Y-12247508D01*
X11668944Y-12247508D02*
X11678467Y-12257031D01*
X11678467Y-12257031D02*
X11687991Y-12276079D01*
X11687991Y-12276079D02*
X11697515Y-12314174D01*
X11697515Y-12314174D02*
X11697515Y-12361793D01*
X11697515Y-12361793D02*
X11687991Y-12399888D01*
X11687991Y-12399888D02*
X11678467Y-12418936D01*
X11678467Y-12418936D02*
X11668944Y-12428460D01*
X11668944Y-12428460D02*
X11649896Y-12437984D01*
X11649896Y-12437984D02*
X11630848Y-12437984D01*
X11630848Y-12437984D02*
X11611801Y-12428460D01*
X11611801Y-12428460D02*
X11602277Y-12418936D01*
X11602277Y-12418936D02*
X11592753Y-12399888D01*
X11592753Y-12399888D02*
X11583229Y-12361793D01*
X11583229Y-12361793D02*
X11583229Y-12314174D01*
X11583229Y-12314174D02*
X11592753Y-12276079D01*
X11592753Y-12276079D02*
X11602277Y-12257031D01*
X11602277Y-12257031D02*
X11611801Y-12247508D01*
X11611801Y-12247508D02*
X11630848Y-12237984D01*
X11764182Y-12237984D02*
X11887991Y-12237984D01*
X11887991Y-12237984D02*
X11821325Y-12314174D01*
X11821325Y-12314174D02*
X11849896Y-12314174D01*
X11849896Y-12314174D02*
X11868944Y-12323698D01*
X11868944Y-12323698D02*
X11878467Y-12333222D01*
X11878467Y-12333222D02*
X11887991Y-12352269D01*
X11887991Y-12352269D02*
X11887991Y-12399888D01*
X11887991Y-12399888D02*
X11878467Y-12418936D01*
X11878467Y-12418936D02*
X11868944Y-12428460D01*
X11868944Y-12428460D02*
X11849896Y-12437984D01*
X11849896Y-12437984D02*
X11792753Y-12437984D01*
X11792753Y-12437984D02*
X11773706Y-12428460D01*
X11773706Y-12428460D02*
X11764182Y-12418936D01*
X12011801Y-12237984D02*
X12030848Y-12237984D01*
X12030848Y-12237984D02*
X12049896Y-12247508D01*
X12049896Y-12247508D02*
X12059420Y-12257031D01*
X12059420Y-12257031D02*
X12068944Y-12276079D01*
X12068944Y-12276079D02*
X12078467Y-12314174D01*
X12078467Y-12314174D02*
X12078467Y-12361793D01*
X12078467Y-12361793D02*
X12068944Y-12399888D01*
X12068944Y-12399888D02*
X12059420Y-12418936D01*
X12059420Y-12418936D02*
X12049896Y-12428460D01*
X12049896Y-12428460D02*
X12030848Y-12437984D01*
X12030848Y-12437984D02*
X12011801Y-12437984D01*
X12011801Y-12437984D02*
X11992753Y-12428460D01*
X11992753Y-12428460D02*
X11983229Y-12418936D01*
X11983229Y-12418936D02*
X11973706Y-12399888D01*
X11973706Y-12399888D02*
X11964182Y-12361793D01*
X11964182Y-12361793D02*
X11964182Y-12314174D01*
X11964182Y-12314174D02*
X11973706Y-12276079D01*
X11973706Y-12276079D02*
X11983229Y-12257031D01*
X11983229Y-12257031D02*
X11992753Y-12247508D01*
X11992753Y-12247508D02*
X12011801Y-12237984D01*
X12202277Y-12237984D02*
X12221325Y-12237984D01*
X12221325Y-12237984D02*
X12240372Y-12247508D01*
X12240372Y-12247508D02*
X12249896Y-12257031D01*
X12249896Y-12257031D02*
X12259420Y-12276079D01*
X12259420Y-12276079D02*
X12268944Y-12314174D01*
X12268944Y-12314174D02*
X12268944Y-12361793D01*
X12268944Y-12361793D02*
X12259420Y-12399888D01*
X12259420Y-12399888D02*
X12249896Y-12418936D01*
X12249896Y-12418936D02*
X12240372Y-12428460D01*
X12240372Y-12428460D02*
X12221325Y-12437984D01*
X12221325Y-12437984D02*
X12202277Y-12437984D01*
X12202277Y-12437984D02*
X12183229Y-12428460D01*
X12183229Y-12428460D02*
X12173706Y-12418936D01*
X12173706Y-12418936D02*
X12164182Y-12399888D01*
X12164182Y-12399888D02*
X12154658Y-12361793D01*
X12154658Y-12361793D02*
X12154658Y-12314174D01*
X12154658Y-12314174D02*
X12164182Y-12276079D01*
X12164182Y-12276079D02*
X12173706Y-12257031D01*
X12173706Y-12257031D02*
X12183229Y-12247508D01*
X12183229Y-12247508D02*
X12202277Y-12237984D01*
X12345134Y-12237984D02*
X12345134Y-12276079D01*
X12421325Y-12237984D02*
X12421325Y-12276079D01*
X12716563Y-12514174D02*
X12707039Y-12504650D01*
X12707039Y-12504650D02*
X12687991Y-12476079D01*
X12687991Y-12476079D02*
X12678468Y-12457031D01*
X12678468Y-12457031D02*
X12668944Y-12428460D01*
X12668944Y-12428460D02*
X12659420Y-12380841D01*
X12659420Y-12380841D02*
X12659420Y-12342746D01*
X12659420Y-12342746D02*
X12668944Y-12295127D01*
X12668944Y-12295127D02*
X12678468Y-12266555D01*
X12678468Y-12266555D02*
X12687991Y-12247508D01*
X12687991Y-12247508D02*
X12707039Y-12218936D01*
X12707039Y-12218936D02*
X12716563Y-12209412D01*
X12773706Y-12237984D02*
X12897515Y-12237984D01*
X12897515Y-12237984D02*
X12830848Y-12314174D01*
X12830848Y-12314174D02*
X12859420Y-12314174D01*
X12859420Y-12314174D02*
X12878468Y-12323698D01*
X12878468Y-12323698D02*
X12887991Y-12333222D01*
X12887991Y-12333222D02*
X12897515Y-12352269D01*
X12897515Y-12352269D02*
X12897515Y-12399888D01*
X12897515Y-12399888D02*
X12887991Y-12418936D01*
X12887991Y-12418936D02*
X12878468Y-12428460D01*
X12878468Y-12428460D02*
X12859420Y-12437984D01*
X12859420Y-12437984D02*
X12802277Y-12437984D01*
X12802277Y-12437984D02*
X12783229Y-12428460D01*
X12783229Y-12428460D02*
X12773706Y-12418936D01*
X13021325Y-12237984D02*
X13040372Y-12237984D01*
X13040372Y-12237984D02*
X13059420Y-12247508D01*
X13059420Y-12247508D02*
X13068944Y-12257031D01*
X13068944Y-12257031D02*
X13078468Y-12276079D01*
X13078468Y-12276079D02*
X13087991Y-12314174D01*
X13087991Y-12314174D02*
X13087991Y-12361793D01*
X13087991Y-12361793D02*
X13078468Y-12399888D01*
X13078468Y-12399888D02*
X13068944Y-12418936D01*
X13068944Y-12418936D02*
X13059420Y-12428460D01*
X13059420Y-12428460D02*
X13040372Y-12437984D01*
X13040372Y-12437984D02*
X13021325Y-12437984D01*
X13021325Y-12437984D02*
X13002277Y-12428460D01*
X13002277Y-12428460D02*
X12992753Y-12418936D01*
X12992753Y-12418936D02*
X12983229Y-12399888D01*
X12983229Y-12399888D02*
X12973706Y-12361793D01*
X12973706Y-12361793D02*
X12973706Y-12314174D01*
X12973706Y-12314174D02*
X12983229Y-12276079D01*
X12983229Y-12276079D02*
X12992753Y-12257031D01*
X12992753Y-12257031D02*
X13002277Y-12247508D01*
X13002277Y-12247508D02*
X13021325Y-12237984D01*
X13326087Y-12437984D02*
X13326087Y-12237984D01*
X13411801Y-12437984D02*
X13411801Y-12333222D01*
X13411801Y-12333222D02*
X13402277Y-12314174D01*
X13402277Y-12314174D02*
X13383230Y-12304650D01*
X13383230Y-12304650D02*
X13354658Y-12304650D01*
X13354658Y-12304650D02*
X13335610Y-12314174D01*
X13335610Y-12314174D02*
X13326087Y-12323698D01*
X13535610Y-12437984D02*
X13516563Y-12428460D01*
X13516563Y-12428460D02*
X13507039Y-12418936D01*
X13507039Y-12418936D02*
X13497515Y-12399888D01*
X13497515Y-12399888D02*
X13497515Y-12342746D01*
X13497515Y-12342746D02*
X13507039Y-12323698D01*
X13507039Y-12323698D02*
X13516563Y-12314174D01*
X13516563Y-12314174D02*
X13535610Y-12304650D01*
X13535610Y-12304650D02*
X13564182Y-12304650D01*
X13564182Y-12304650D02*
X13583230Y-12314174D01*
X13583230Y-12314174D02*
X13592753Y-12323698D01*
X13592753Y-12323698D02*
X13602277Y-12342746D01*
X13602277Y-12342746D02*
X13602277Y-12399888D01*
X13602277Y-12399888D02*
X13592753Y-12418936D01*
X13592753Y-12418936D02*
X13583230Y-12428460D01*
X13583230Y-12428460D02*
X13564182Y-12437984D01*
X13564182Y-12437984D02*
X13535610Y-12437984D01*
X13716563Y-12437984D02*
X13697515Y-12428460D01*
X13697515Y-12428460D02*
X13687991Y-12409412D01*
X13687991Y-12409412D02*
X13687991Y-12237984D01*
X13868944Y-12428460D02*
X13849896Y-12437984D01*
X13849896Y-12437984D02*
X13811801Y-12437984D01*
X13811801Y-12437984D02*
X13792753Y-12428460D01*
X13792753Y-12428460D02*
X13783230Y-12409412D01*
X13783230Y-12409412D02*
X13783230Y-12333222D01*
X13783230Y-12333222D02*
X13792753Y-12314174D01*
X13792753Y-12314174D02*
X13811801Y-12304650D01*
X13811801Y-12304650D02*
X13849896Y-12304650D01*
X13849896Y-12304650D02*
X13868944Y-12314174D01*
X13868944Y-12314174D02*
X13878468Y-12333222D01*
X13878468Y-12333222D02*
X13878468Y-12352269D01*
X13878468Y-12352269D02*
X13783230Y-12371317D01*
X13954658Y-12428460D02*
X13973706Y-12437984D01*
X13973706Y-12437984D02*
X14011801Y-12437984D01*
X14011801Y-12437984D02*
X14030849Y-12428460D01*
X14030849Y-12428460D02*
X14040372Y-12409412D01*
X14040372Y-12409412D02*
X14040372Y-12399888D01*
X14040372Y-12399888D02*
X14030849Y-12380841D01*
X14030849Y-12380841D02*
X14011801Y-12371317D01*
X14011801Y-12371317D02*
X13983230Y-12371317D01*
X13983230Y-12371317D02*
X13964182Y-12361793D01*
X13964182Y-12361793D02*
X13954658Y-12342746D01*
X13954658Y-12342746D02*
X13954658Y-12333222D01*
X13954658Y-12333222D02*
X13964182Y-12314174D01*
X13964182Y-12314174D02*
X13983230Y-12304650D01*
X13983230Y-12304650D02*
X14011801Y-12304650D01*
X14011801Y-12304650D02*
X14030849Y-12314174D01*
X14107039Y-12514174D02*
X14116563Y-12504650D01*
X14116563Y-12504650D02*
X14135611Y-12476079D01*
X14135611Y-12476079D02*
X14145134Y-12457031D01*
X14145134Y-12457031D02*
X14154658Y-12428460D01*
X14154658Y-12428460D02*
X14164182Y-12380841D01*
X14164182Y-12380841D02*
X14164182Y-12342746D01*
X14164182Y-12342746D02*
X14154658Y-12295127D01*
X14154658Y-12295127D02*
X14145134Y-12266555D01*
X14145134Y-12266555D02*
X14135611Y-12247508D01*
X14135611Y-12247508D02*
X14116563Y-12218936D01*
X14116563Y-12218936D02*
X14107039Y-12209412D01*
D12*
X9126856Y-12645856D02*
X9126856Y-12575144D01*
X9056144Y-12575144D01*
X9056144Y-12645856D01*
X9126856Y-12645856D01*
D11*
X9507039Y-12701984D02*
X9392753Y-12701984D01*
X9449896Y-12701984D02*
X9449896Y-12501984D01*
X9449896Y-12501984D02*
X9430848Y-12530555D01*
X9430848Y-12530555D02*
X9411801Y-12549603D01*
X9411801Y-12549603D02*
X9392753Y-12559127D01*
X9592753Y-12682936D02*
X9602277Y-12692460D01*
X9602277Y-12692460D02*
X9592753Y-12701984D01*
X9592753Y-12701984D02*
X9583229Y-12692460D01*
X9583229Y-12692460D02*
X9592753Y-12682936D01*
X9592753Y-12682936D02*
X9592753Y-12701984D01*
X9726086Y-12501984D02*
X9745134Y-12501984D01*
X9745134Y-12501984D02*
X9764182Y-12511508D01*
X9764182Y-12511508D02*
X9773705Y-12521031D01*
X9773705Y-12521031D02*
X9783229Y-12540079D01*
X9783229Y-12540079D02*
X9792753Y-12578174D01*
X9792753Y-12578174D02*
X9792753Y-12625793D01*
X9792753Y-12625793D02*
X9783229Y-12663888D01*
X9783229Y-12663888D02*
X9773705Y-12682936D01*
X9773705Y-12682936D02*
X9764182Y-12692460D01*
X9764182Y-12692460D02*
X9745134Y-12701984D01*
X9745134Y-12701984D02*
X9726086Y-12701984D01*
X9726086Y-12701984D02*
X9707039Y-12692460D01*
X9707039Y-12692460D02*
X9697515Y-12682936D01*
X9697515Y-12682936D02*
X9687991Y-12663888D01*
X9687991Y-12663888D02*
X9678467Y-12625793D01*
X9678467Y-12625793D02*
X9678467Y-12578174D01*
X9678467Y-12578174D02*
X9687991Y-12540079D01*
X9687991Y-12540079D02*
X9697515Y-12521031D01*
X9697515Y-12521031D02*
X9707039Y-12511508D01*
X9707039Y-12511508D02*
X9726086Y-12501984D01*
X9916563Y-12501984D02*
X9935610Y-12501984D01*
X9935610Y-12501984D02*
X9954658Y-12511508D01*
X9954658Y-12511508D02*
X9964182Y-12521031D01*
X9964182Y-12521031D02*
X9973705Y-12540079D01*
X9973705Y-12540079D02*
X9983229Y-12578174D01*
X9983229Y-12578174D02*
X9983229Y-12625793D01*
X9983229Y-12625793D02*
X9973705Y-12663888D01*
X9973705Y-12663888D02*
X9964182Y-12682936D01*
X9964182Y-12682936D02*
X9954658Y-12692460D01*
X9954658Y-12692460D02*
X9935610Y-12701984D01*
X9935610Y-12701984D02*
X9916563Y-12701984D01*
X9916563Y-12701984D02*
X9897515Y-12692460D01*
X9897515Y-12692460D02*
X9887991Y-12682936D01*
X9887991Y-12682936D02*
X9878467Y-12663888D01*
X9878467Y-12663888D02*
X9868944Y-12625793D01*
X9868944Y-12625793D02*
X9868944Y-12578174D01*
X9868944Y-12578174D02*
X9878467Y-12540079D01*
X9878467Y-12540079D02*
X9887991Y-12521031D01*
X9887991Y-12521031D02*
X9897515Y-12511508D01*
X9897515Y-12511508D02*
X9916563Y-12501984D01*
X10107039Y-12501984D02*
X10126086Y-12501984D01*
X10126086Y-12501984D02*
X10145134Y-12511508D01*
X10145134Y-12511508D02*
X10154658Y-12521031D01*
X10154658Y-12521031D02*
X10164182Y-12540079D01*
X10164182Y-12540079D02*
X10173705Y-12578174D01*
X10173705Y-12578174D02*
X10173705Y-12625793D01*
X10173705Y-12625793D02*
X10164182Y-12663888D01*
X10164182Y-12663888D02*
X10154658Y-12682936D01*
X10154658Y-12682936D02*
X10145134Y-12692460D01*
X10145134Y-12692460D02*
X10126086Y-12701984D01*
X10126086Y-12701984D02*
X10107039Y-12701984D01*
X10107039Y-12701984D02*
X10087991Y-12692460D01*
X10087991Y-12692460D02*
X10078467Y-12682936D01*
X10078467Y-12682936D02*
X10068944Y-12663888D01*
X10068944Y-12663888D02*
X10059420Y-12625793D01*
X10059420Y-12625793D02*
X10059420Y-12578174D01*
X10059420Y-12578174D02*
X10068944Y-12540079D01*
X10068944Y-12540079D02*
X10078467Y-12521031D01*
X10078467Y-12521031D02*
X10087991Y-12511508D01*
X10087991Y-12511508D02*
X10107039Y-12501984D01*
X10259420Y-12701984D02*
X10259420Y-12568650D01*
X10259420Y-12587698D02*
X10268944Y-12578174D01*
X10268944Y-12578174D02*
X10287991Y-12568650D01*
X10287991Y-12568650D02*
X10316563Y-12568650D01*
X10316563Y-12568650D02*
X10335610Y-12578174D01*
X10335610Y-12578174D02*
X10345134Y-12597222D01*
X10345134Y-12597222D02*
X10345134Y-12701984D01*
X10345134Y-12597222D02*
X10354658Y-12578174D01*
X10354658Y-12578174D02*
X10373705Y-12568650D01*
X10373705Y-12568650D02*
X10402277Y-12568650D01*
X10402277Y-12568650D02*
X10421325Y-12578174D01*
X10421325Y-12578174D02*
X10430848Y-12597222D01*
X10430848Y-12597222D02*
X10430848Y-12701984D01*
X10526086Y-12701984D02*
X10526086Y-12568650D01*
X10526086Y-12587698D02*
X10535610Y-12578174D01*
X10535610Y-12578174D02*
X10554658Y-12568650D01*
X10554658Y-12568650D02*
X10583229Y-12568650D01*
X10583229Y-12568650D02*
X10602277Y-12578174D01*
X10602277Y-12578174D02*
X10611801Y-12597222D01*
X10611801Y-12597222D02*
X10611801Y-12701984D01*
X10611801Y-12597222D02*
X10621325Y-12578174D01*
X10621325Y-12578174D02*
X10640372Y-12568650D01*
X10640372Y-12568650D02*
X10668944Y-12568650D01*
X10668944Y-12568650D02*
X10687991Y-12578174D01*
X10687991Y-12578174D02*
X10697515Y-12597222D01*
X10697515Y-12597222D02*
X10697515Y-12701984D01*
X11087991Y-12492460D02*
X10916563Y-12749603D01*
X11345134Y-12501984D02*
X11364182Y-12501984D01*
X11364182Y-12501984D02*
X11383229Y-12511508D01*
X11383229Y-12511508D02*
X11392753Y-12521031D01*
X11392753Y-12521031D02*
X11402277Y-12540079D01*
X11402277Y-12540079D02*
X11411801Y-12578174D01*
X11411801Y-12578174D02*
X11411801Y-12625793D01*
X11411801Y-12625793D02*
X11402277Y-12663888D01*
X11402277Y-12663888D02*
X11392753Y-12682936D01*
X11392753Y-12682936D02*
X11383229Y-12692460D01*
X11383229Y-12692460D02*
X11364182Y-12701984D01*
X11364182Y-12701984D02*
X11345134Y-12701984D01*
X11345134Y-12701984D02*
X11326086Y-12692460D01*
X11326086Y-12692460D02*
X11316563Y-12682936D01*
X11316563Y-12682936D02*
X11307039Y-12663888D01*
X11307039Y-12663888D02*
X11297515Y-12625793D01*
X11297515Y-12625793D02*
X11297515Y-12578174D01*
X11297515Y-12578174D02*
X11307039Y-12540079D01*
X11307039Y-12540079D02*
X11316563Y-12521031D01*
X11316563Y-12521031D02*
X11326086Y-12511508D01*
X11326086Y-12511508D02*
X11345134Y-12501984D01*
X11497515Y-12682936D02*
X11507039Y-12692460D01*
X11507039Y-12692460D02*
X11497515Y-12701984D01*
X11497515Y-12701984D02*
X11487991Y-12692460D01*
X11487991Y-12692460D02*
X11497515Y-12682936D01*
X11497515Y-12682936D02*
X11497515Y-12701984D01*
X11630848Y-12501984D02*
X11649896Y-12501984D01*
X11649896Y-12501984D02*
X11668944Y-12511508D01*
X11668944Y-12511508D02*
X11678467Y-12521031D01*
X11678467Y-12521031D02*
X11687991Y-12540079D01*
X11687991Y-12540079D02*
X11697515Y-12578174D01*
X11697515Y-12578174D02*
X11697515Y-12625793D01*
X11697515Y-12625793D02*
X11687991Y-12663888D01*
X11687991Y-12663888D02*
X11678467Y-12682936D01*
X11678467Y-12682936D02*
X11668944Y-12692460D01*
X11668944Y-12692460D02*
X11649896Y-12701984D01*
X11649896Y-12701984D02*
X11630848Y-12701984D01*
X11630848Y-12701984D02*
X11611801Y-12692460D01*
X11611801Y-12692460D02*
X11602277Y-12682936D01*
X11602277Y-12682936D02*
X11592753Y-12663888D01*
X11592753Y-12663888D02*
X11583229Y-12625793D01*
X11583229Y-12625793D02*
X11583229Y-12578174D01*
X11583229Y-12578174D02*
X11592753Y-12540079D01*
X11592753Y-12540079D02*
X11602277Y-12521031D01*
X11602277Y-12521031D02*
X11611801Y-12511508D01*
X11611801Y-12511508D02*
X11630848Y-12501984D01*
X11764182Y-12501984D02*
X11887991Y-12501984D01*
X11887991Y-12501984D02*
X11821325Y-12578174D01*
X11821325Y-12578174D02*
X11849896Y-12578174D01*
X11849896Y-12578174D02*
X11868944Y-12587698D01*
X11868944Y-12587698D02*
X11878467Y-12597222D01*
X11878467Y-12597222D02*
X11887991Y-12616269D01*
X11887991Y-12616269D02*
X11887991Y-12663888D01*
X11887991Y-12663888D02*
X11878467Y-12682936D01*
X11878467Y-12682936D02*
X11868944Y-12692460D01*
X11868944Y-12692460D02*
X11849896Y-12701984D01*
X11849896Y-12701984D02*
X11792753Y-12701984D01*
X11792753Y-12701984D02*
X11773706Y-12692460D01*
X11773706Y-12692460D02*
X11764182Y-12682936D01*
X11983229Y-12701984D02*
X12021325Y-12701984D01*
X12021325Y-12701984D02*
X12040372Y-12692460D01*
X12040372Y-12692460D02*
X12049896Y-12682936D01*
X12049896Y-12682936D02*
X12068944Y-12654365D01*
X12068944Y-12654365D02*
X12078467Y-12616269D01*
X12078467Y-12616269D02*
X12078467Y-12540079D01*
X12078467Y-12540079D02*
X12068944Y-12521031D01*
X12068944Y-12521031D02*
X12059420Y-12511508D01*
X12059420Y-12511508D02*
X12040372Y-12501984D01*
X12040372Y-12501984D02*
X12002277Y-12501984D01*
X12002277Y-12501984D02*
X11983229Y-12511508D01*
X11983229Y-12511508D02*
X11973706Y-12521031D01*
X11973706Y-12521031D02*
X11964182Y-12540079D01*
X11964182Y-12540079D02*
X11964182Y-12587698D01*
X11964182Y-12587698D02*
X11973706Y-12606746D01*
X11973706Y-12606746D02*
X11983229Y-12616269D01*
X11983229Y-12616269D02*
X12002277Y-12625793D01*
X12002277Y-12625793D02*
X12040372Y-12625793D01*
X12040372Y-12625793D02*
X12059420Y-12616269D01*
X12059420Y-12616269D02*
X12068944Y-12606746D01*
X12068944Y-12606746D02*
X12078467Y-12587698D01*
X12249896Y-12568650D02*
X12249896Y-12701984D01*
X12202277Y-12492460D02*
X12154658Y-12635317D01*
X12154658Y-12635317D02*
X12278467Y-12635317D01*
X12345134Y-12501984D02*
X12345134Y-12540079D01*
X12421325Y-12501984D02*
X12421325Y-12540079D01*
X12716563Y-12778174D02*
X12707039Y-12768650D01*
X12707039Y-12768650D02*
X12687991Y-12740079D01*
X12687991Y-12740079D02*
X12678468Y-12721031D01*
X12678468Y-12721031D02*
X12668944Y-12692460D01*
X12668944Y-12692460D02*
X12659420Y-12644841D01*
X12659420Y-12644841D02*
X12659420Y-12606746D01*
X12659420Y-12606746D02*
X12668944Y-12559127D01*
X12668944Y-12559127D02*
X12678468Y-12530555D01*
X12678468Y-12530555D02*
X12687991Y-12511508D01*
X12687991Y-12511508D02*
X12707039Y-12482936D01*
X12707039Y-12482936D02*
X12716563Y-12473412D01*
X12783229Y-12521031D02*
X12792753Y-12511508D01*
X12792753Y-12511508D02*
X12811801Y-12501984D01*
X12811801Y-12501984D02*
X12859420Y-12501984D01*
X12859420Y-12501984D02*
X12878468Y-12511508D01*
X12878468Y-12511508D02*
X12887991Y-12521031D01*
X12887991Y-12521031D02*
X12897515Y-12540079D01*
X12897515Y-12540079D02*
X12897515Y-12559127D01*
X12897515Y-12559127D02*
X12887991Y-12587698D01*
X12887991Y-12587698D02*
X12773706Y-12701984D01*
X12773706Y-12701984D02*
X12897515Y-12701984D01*
X13078468Y-12501984D02*
X12983229Y-12501984D01*
X12983229Y-12501984D02*
X12973706Y-12597222D01*
X12973706Y-12597222D02*
X12983229Y-12587698D01*
X12983229Y-12587698D02*
X13002277Y-12578174D01*
X13002277Y-12578174D02*
X13049896Y-12578174D01*
X13049896Y-12578174D02*
X13068944Y-12587698D01*
X13068944Y-12587698D02*
X13078468Y-12597222D01*
X13078468Y-12597222D02*
X13087991Y-12616269D01*
X13087991Y-12616269D02*
X13087991Y-12663888D01*
X13087991Y-12663888D02*
X13078468Y-12682936D01*
X13078468Y-12682936D02*
X13068944Y-12692460D01*
X13068944Y-12692460D02*
X13049896Y-12701984D01*
X13049896Y-12701984D02*
X13002277Y-12701984D01*
X13002277Y-12701984D02*
X12983229Y-12692460D01*
X12983229Y-12692460D02*
X12973706Y-12682936D01*
X13326087Y-12701984D02*
X13326087Y-12501984D01*
X13411801Y-12701984D02*
X13411801Y-12597222D01*
X13411801Y-12597222D02*
X13402277Y-12578174D01*
X13402277Y-12578174D02*
X13383230Y-12568650D01*
X13383230Y-12568650D02*
X13354658Y-12568650D01*
X13354658Y-12568650D02*
X13335610Y-12578174D01*
X13335610Y-12578174D02*
X13326087Y-12587698D01*
X13535610Y-12701984D02*
X13516563Y-12692460D01*
X13516563Y-12692460D02*
X13507039Y-12682936D01*
X13507039Y-12682936D02*
X13497515Y-12663888D01*
X13497515Y-12663888D02*
X13497515Y-12606746D01*
X13497515Y-12606746D02*
X13507039Y-12587698D01*
X13507039Y-12587698D02*
X13516563Y-12578174D01*
X13516563Y-12578174D02*
X13535610Y-12568650D01*
X13535610Y-12568650D02*
X13564182Y-12568650D01*
X13564182Y-12568650D02*
X13583230Y-12578174D01*
X13583230Y-12578174D02*
X13592753Y-12587698D01*
X13592753Y-12587698D02*
X13602277Y-12606746D01*
X13602277Y-12606746D02*
X13602277Y-12663888D01*
X13602277Y-12663888D02*
X13592753Y-12682936D01*
X13592753Y-12682936D02*
X13583230Y-12692460D01*
X13583230Y-12692460D02*
X13564182Y-12701984D01*
X13564182Y-12701984D02*
X13535610Y-12701984D01*
X13716563Y-12701984D02*
X13697515Y-12692460D01*
X13697515Y-12692460D02*
X13687991Y-12673412D01*
X13687991Y-12673412D02*
X13687991Y-12501984D01*
X13868944Y-12692460D02*
X13849896Y-12701984D01*
X13849896Y-12701984D02*
X13811801Y-12701984D01*
X13811801Y-12701984D02*
X13792753Y-12692460D01*
X13792753Y-12692460D02*
X13783230Y-12673412D01*
X13783230Y-12673412D02*
X13783230Y-12597222D01*
X13783230Y-12597222D02*
X13792753Y-12578174D01*
X13792753Y-12578174D02*
X13811801Y-12568650D01*
X13811801Y-12568650D02*
X13849896Y-12568650D01*
X13849896Y-12568650D02*
X13868944Y-12578174D01*
X13868944Y-12578174D02*
X13878468Y-12597222D01*
X13878468Y-12597222D02*
X13878468Y-12616269D01*
X13878468Y-12616269D02*
X13783230Y-12635317D01*
X13954658Y-12692460D02*
X13973706Y-12701984D01*
X13973706Y-12701984D02*
X14011801Y-12701984D01*
X14011801Y-12701984D02*
X14030849Y-12692460D01*
X14030849Y-12692460D02*
X14040372Y-12673412D01*
X14040372Y-12673412D02*
X14040372Y-12663888D01*
X14040372Y-12663888D02*
X14030849Y-12644841D01*
X14030849Y-12644841D02*
X14011801Y-12635317D01*
X14011801Y-12635317D02*
X13983230Y-12635317D01*
X13983230Y-12635317D02*
X13964182Y-12625793D01*
X13964182Y-12625793D02*
X13954658Y-12606746D01*
X13954658Y-12606746D02*
X13954658Y-12597222D01*
X13954658Y-12597222D02*
X13964182Y-12578174D01*
X13964182Y-12578174D02*
X13983230Y-12568650D01*
X13983230Y-12568650D02*
X14011801Y-12568650D01*
X14011801Y-12568650D02*
X14030849Y-12578174D01*
X14107039Y-12778174D02*
X14116563Y-12768650D01*
X14116563Y-12768650D02*
X14135611Y-12740079D01*
X14135611Y-12740079D02*
X14145134Y-12721031D01*
X14145134Y-12721031D02*
X14154658Y-12692460D01*
X14154658Y-12692460D02*
X14164182Y-12644841D01*
X14164182Y-12644841D02*
X14164182Y-12606746D01*
X14164182Y-12606746D02*
X14154658Y-12559127D01*
X14154658Y-12559127D02*
X14145134Y-12530555D01*
X14145134Y-12530555D02*
X14135611Y-12511508D01*
X14135611Y-12511508D02*
X14116563Y-12482936D01*
X14116563Y-12482936D02*
X14107039Y-12473412D01*
D13*
X9041551Y-12974449D02*
X9141500Y-12874500D01*
X9041551Y-12774551D01*
X8941602Y-12874500D01*
X9041551Y-12974449D01*
D11*
X9507039Y-12965984D02*
X9392753Y-12965984D01*
X9449896Y-12965984D02*
X9449896Y-12765984D01*
X9449896Y-12765984D02*
X9430848Y-12794555D01*
X9430848Y-12794555D02*
X9411801Y-12813603D01*
X9411801Y-12813603D02*
X9392753Y-12823127D01*
X9592753Y-12946936D02*
X9602277Y-12956460D01*
X9602277Y-12956460D02*
X9592753Y-12965984D01*
X9592753Y-12965984D02*
X9583229Y-12956460D01*
X9583229Y-12956460D02*
X9592753Y-12946936D01*
X9592753Y-12946936D02*
X9592753Y-12965984D01*
X9697515Y-12965984D02*
X9735610Y-12965984D01*
X9735610Y-12965984D02*
X9754658Y-12956460D01*
X9754658Y-12956460D02*
X9764182Y-12946936D01*
X9764182Y-12946936D02*
X9783229Y-12918365D01*
X9783229Y-12918365D02*
X9792753Y-12880269D01*
X9792753Y-12880269D02*
X9792753Y-12804079D01*
X9792753Y-12804079D02*
X9783229Y-12785031D01*
X9783229Y-12785031D02*
X9773705Y-12775508D01*
X9773705Y-12775508D02*
X9754658Y-12765984D01*
X9754658Y-12765984D02*
X9716563Y-12765984D01*
X9716563Y-12765984D02*
X9697515Y-12775508D01*
X9697515Y-12775508D02*
X9687991Y-12785031D01*
X9687991Y-12785031D02*
X9678467Y-12804079D01*
X9678467Y-12804079D02*
X9678467Y-12851698D01*
X9678467Y-12851698D02*
X9687991Y-12870746D01*
X9687991Y-12870746D02*
X9697515Y-12880269D01*
X9697515Y-12880269D02*
X9716563Y-12889793D01*
X9716563Y-12889793D02*
X9754658Y-12889793D01*
X9754658Y-12889793D02*
X9773705Y-12880269D01*
X9773705Y-12880269D02*
X9783229Y-12870746D01*
X9783229Y-12870746D02*
X9792753Y-12851698D01*
X9887991Y-12965984D02*
X9926086Y-12965984D01*
X9926086Y-12965984D02*
X9945134Y-12956460D01*
X9945134Y-12956460D02*
X9954658Y-12946936D01*
X9954658Y-12946936D02*
X9973705Y-12918365D01*
X9973705Y-12918365D02*
X9983229Y-12880269D01*
X9983229Y-12880269D02*
X9983229Y-12804079D01*
X9983229Y-12804079D02*
X9973705Y-12785031D01*
X9973705Y-12785031D02*
X9964182Y-12775508D01*
X9964182Y-12775508D02*
X9945134Y-12765984D01*
X9945134Y-12765984D02*
X9907039Y-12765984D01*
X9907039Y-12765984D02*
X9887991Y-12775508D01*
X9887991Y-12775508D02*
X9878467Y-12785031D01*
X9878467Y-12785031D02*
X9868944Y-12804079D01*
X9868944Y-12804079D02*
X9868944Y-12851698D01*
X9868944Y-12851698D02*
X9878467Y-12870746D01*
X9878467Y-12870746D02*
X9887991Y-12880269D01*
X9887991Y-12880269D02*
X9907039Y-12889793D01*
X9907039Y-12889793D02*
X9945134Y-12889793D01*
X9945134Y-12889793D02*
X9964182Y-12880269D01*
X9964182Y-12880269D02*
X9973705Y-12870746D01*
X9973705Y-12870746D02*
X9983229Y-12851698D01*
X10078467Y-12965984D02*
X10116563Y-12965984D01*
X10116563Y-12965984D02*
X10135610Y-12956460D01*
X10135610Y-12956460D02*
X10145134Y-12946936D01*
X10145134Y-12946936D02*
X10164182Y-12918365D01*
X10164182Y-12918365D02*
X10173705Y-12880269D01*
X10173705Y-12880269D02*
X10173705Y-12804079D01*
X10173705Y-12804079D02*
X10164182Y-12785031D01*
X10164182Y-12785031D02*
X10154658Y-12775508D01*
X10154658Y-12775508D02*
X10135610Y-12765984D01*
X10135610Y-12765984D02*
X10097515Y-12765984D01*
X10097515Y-12765984D02*
X10078467Y-12775508D01*
X10078467Y-12775508D02*
X10068944Y-12785031D01*
X10068944Y-12785031D02*
X10059420Y-12804079D01*
X10059420Y-12804079D02*
X10059420Y-12851698D01*
X10059420Y-12851698D02*
X10068944Y-12870746D01*
X10068944Y-12870746D02*
X10078467Y-12880269D01*
X10078467Y-12880269D02*
X10097515Y-12889793D01*
X10097515Y-12889793D02*
X10135610Y-12889793D01*
X10135610Y-12889793D02*
X10154658Y-12880269D01*
X10154658Y-12880269D02*
X10164182Y-12870746D01*
X10164182Y-12870746D02*
X10173705Y-12851698D01*
X10259420Y-12965984D02*
X10259420Y-12832650D01*
X10259420Y-12851698D02*
X10268944Y-12842174D01*
X10268944Y-12842174D02*
X10287991Y-12832650D01*
X10287991Y-12832650D02*
X10316563Y-12832650D01*
X10316563Y-12832650D02*
X10335610Y-12842174D01*
X10335610Y-12842174D02*
X10345134Y-12861222D01*
X10345134Y-12861222D02*
X10345134Y-12965984D01*
X10345134Y-12861222D02*
X10354658Y-12842174D01*
X10354658Y-12842174D02*
X10373705Y-12832650D01*
X10373705Y-12832650D02*
X10402277Y-12832650D01*
X10402277Y-12832650D02*
X10421325Y-12842174D01*
X10421325Y-12842174D02*
X10430848Y-12861222D01*
X10430848Y-12861222D02*
X10430848Y-12965984D01*
X10526086Y-12965984D02*
X10526086Y-12832650D01*
X10526086Y-12851698D02*
X10535610Y-12842174D01*
X10535610Y-12842174D02*
X10554658Y-12832650D01*
X10554658Y-12832650D02*
X10583229Y-12832650D01*
X10583229Y-12832650D02*
X10602277Y-12842174D01*
X10602277Y-12842174D02*
X10611801Y-12861222D01*
X10611801Y-12861222D02*
X10611801Y-12965984D01*
X10611801Y-12861222D02*
X10621325Y-12842174D01*
X10621325Y-12842174D02*
X10640372Y-12832650D01*
X10640372Y-12832650D02*
X10668944Y-12832650D01*
X10668944Y-12832650D02*
X10687991Y-12842174D01*
X10687991Y-12842174D02*
X10697515Y-12861222D01*
X10697515Y-12861222D02*
X10697515Y-12965984D01*
X11087991Y-12756460D02*
X10916563Y-13013603D01*
X11345134Y-12765984D02*
X11364182Y-12765984D01*
X11364182Y-12765984D02*
X11383229Y-12775508D01*
X11383229Y-12775508D02*
X11392753Y-12785031D01*
X11392753Y-12785031D02*
X11402277Y-12804079D01*
X11402277Y-12804079D02*
X11411801Y-12842174D01*
X11411801Y-12842174D02*
X11411801Y-12889793D01*
X11411801Y-12889793D02*
X11402277Y-12927888D01*
X11402277Y-12927888D02*
X11392753Y-12946936D01*
X11392753Y-12946936D02*
X11383229Y-12956460D01*
X11383229Y-12956460D02*
X11364182Y-12965984D01*
X11364182Y-12965984D02*
X11345134Y-12965984D01*
X11345134Y-12965984D02*
X11326086Y-12956460D01*
X11326086Y-12956460D02*
X11316563Y-12946936D01*
X11316563Y-12946936D02*
X11307039Y-12927888D01*
X11307039Y-12927888D02*
X11297515Y-12889793D01*
X11297515Y-12889793D02*
X11297515Y-12842174D01*
X11297515Y-12842174D02*
X11307039Y-12804079D01*
X11307039Y-12804079D02*
X11316563Y-12785031D01*
X11316563Y-12785031D02*
X11326086Y-12775508D01*
X11326086Y-12775508D02*
X11345134Y-12765984D01*
X11497515Y-12946936D02*
X11507039Y-12956460D01*
X11507039Y-12956460D02*
X11497515Y-12965984D01*
X11497515Y-12965984D02*
X11487991Y-12956460D01*
X11487991Y-12956460D02*
X11497515Y-12946936D01*
X11497515Y-12946936D02*
X11497515Y-12965984D01*
X11630848Y-12765984D02*
X11649896Y-12765984D01*
X11649896Y-12765984D02*
X11668944Y-12775508D01*
X11668944Y-12775508D02*
X11678467Y-12785031D01*
X11678467Y-12785031D02*
X11687991Y-12804079D01*
X11687991Y-12804079D02*
X11697515Y-12842174D01*
X11697515Y-12842174D02*
X11697515Y-12889793D01*
X11697515Y-12889793D02*
X11687991Y-12927888D01*
X11687991Y-12927888D02*
X11678467Y-12946936D01*
X11678467Y-12946936D02*
X11668944Y-12956460D01*
X11668944Y-12956460D02*
X11649896Y-12965984D01*
X11649896Y-12965984D02*
X11630848Y-12965984D01*
X11630848Y-12965984D02*
X11611801Y-12956460D01*
X11611801Y-12956460D02*
X11602277Y-12946936D01*
X11602277Y-12946936D02*
X11592753Y-12927888D01*
X11592753Y-12927888D02*
X11583229Y-12889793D01*
X11583229Y-12889793D02*
X11583229Y-12842174D01*
X11583229Y-12842174D02*
X11592753Y-12804079D01*
X11592753Y-12804079D02*
X11602277Y-12785031D01*
X11602277Y-12785031D02*
X11611801Y-12775508D01*
X11611801Y-12775508D02*
X11630848Y-12765984D01*
X11764182Y-12765984D02*
X11897515Y-12765984D01*
X11897515Y-12765984D02*
X11811801Y-12965984D01*
X12002277Y-12851698D02*
X11983229Y-12842174D01*
X11983229Y-12842174D02*
X11973706Y-12832650D01*
X11973706Y-12832650D02*
X11964182Y-12813603D01*
X11964182Y-12813603D02*
X11964182Y-12804079D01*
X11964182Y-12804079D02*
X11973706Y-12785031D01*
X11973706Y-12785031D02*
X11983229Y-12775508D01*
X11983229Y-12775508D02*
X12002277Y-12765984D01*
X12002277Y-12765984D02*
X12040372Y-12765984D01*
X12040372Y-12765984D02*
X12059420Y-12775508D01*
X12059420Y-12775508D02*
X12068944Y-12785031D01*
X12068944Y-12785031D02*
X12078467Y-12804079D01*
X12078467Y-12804079D02*
X12078467Y-12813603D01*
X12078467Y-12813603D02*
X12068944Y-12832650D01*
X12068944Y-12832650D02*
X12059420Y-12842174D01*
X12059420Y-12842174D02*
X12040372Y-12851698D01*
X12040372Y-12851698D02*
X12002277Y-12851698D01*
X12002277Y-12851698D02*
X11983229Y-12861222D01*
X11983229Y-12861222D02*
X11973706Y-12870746D01*
X11973706Y-12870746D02*
X11964182Y-12889793D01*
X11964182Y-12889793D02*
X11964182Y-12927888D01*
X11964182Y-12927888D02*
X11973706Y-12946936D01*
X11973706Y-12946936D02*
X11983229Y-12956460D01*
X11983229Y-12956460D02*
X12002277Y-12965984D01*
X12002277Y-12965984D02*
X12040372Y-12965984D01*
X12040372Y-12965984D02*
X12059420Y-12956460D01*
X12059420Y-12956460D02*
X12068944Y-12946936D01*
X12068944Y-12946936D02*
X12078467Y-12927888D01*
X12078467Y-12927888D02*
X12078467Y-12889793D01*
X12078467Y-12889793D02*
X12068944Y-12870746D01*
X12068944Y-12870746D02*
X12059420Y-12861222D01*
X12059420Y-12861222D02*
X12040372Y-12851698D01*
X12145134Y-12765984D02*
X12278467Y-12765984D01*
X12278467Y-12765984D02*
X12192753Y-12965984D01*
X12345134Y-12765984D02*
X12345134Y-12804079D01*
X12421325Y-12765984D02*
X12421325Y-12804079D01*
X12716563Y-13042174D02*
X12707039Y-13032650D01*
X12707039Y-13032650D02*
X12687991Y-13004079D01*
X12687991Y-13004079D02*
X12678468Y-12985031D01*
X12678468Y-12985031D02*
X12668944Y-12956460D01*
X12668944Y-12956460D02*
X12659420Y-12908841D01*
X12659420Y-12908841D02*
X12659420Y-12870746D01*
X12659420Y-12870746D02*
X12668944Y-12823127D01*
X12668944Y-12823127D02*
X12678468Y-12794555D01*
X12678468Y-12794555D02*
X12687991Y-12775508D01*
X12687991Y-12775508D02*
X12707039Y-12746936D01*
X12707039Y-12746936D02*
X12716563Y-12737412D01*
X12878468Y-12765984D02*
X12840372Y-12765984D01*
X12840372Y-12765984D02*
X12821325Y-12775508D01*
X12821325Y-12775508D02*
X12811801Y-12785031D01*
X12811801Y-12785031D02*
X12792753Y-12813603D01*
X12792753Y-12813603D02*
X12783229Y-12851698D01*
X12783229Y-12851698D02*
X12783229Y-12927888D01*
X12783229Y-12927888D02*
X12792753Y-12946936D01*
X12792753Y-12946936D02*
X12802277Y-12956460D01*
X12802277Y-12956460D02*
X12821325Y-12965984D01*
X12821325Y-12965984D02*
X12859420Y-12965984D01*
X12859420Y-12965984D02*
X12878468Y-12956460D01*
X12878468Y-12956460D02*
X12887991Y-12946936D01*
X12887991Y-12946936D02*
X12897515Y-12927888D01*
X12897515Y-12927888D02*
X12897515Y-12880269D01*
X12897515Y-12880269D02*
X12887991Y-12861222D01*
X12887991Y-12861222D02*
X12878468Y-12851698D01*
X12878468Y-12851698D02*
X12859420Y-12842174D01*
X12859420Y-12842174D02*
X12821325Y-12842174D01*
X12821325Y-12842174D02*
X12802277Y-12851698D01*
X12802277Y-12851698D02*
X12792753Y-12861222D01*
X12792753Y-12861222D02*
X12783229Y-12880269D01*
X13135610Y-12965984D02*
X13135610Y-12765984D01*
X13221325Y-12965984D02*
X13221325Y-12861222D01*
X13221325Y-12861222D02*
X13211801Y-12842174D01*
X13211801Y-12842174D02*
X13192753Y-12832650D01*
X13192753Y-12832650D02*
X13164182Y-12832650D01*
X13164182Y-12832650D02*
X13145134Y-12842174D01*
X13145134Y-12842174D02*
X13135610Y-12851698D01*
X13345134Y-12965984D02*
X13326087Y-12956460D01*
X13326087Y-12956460D02*
X13316563Y-12946936D01*
X13316563Y-12946936D02*
X13307039Y-12927888D01*
X13307039Y-12927888D02*
X13307039Y-12870746D01*
X13307039Y-12870746D02*
X13316563Y-12851698D01*
X13316563Y-12851698D02*
X13326087Y-12842174D01*
X13326087Y-12842174D02*
X13345134Y-12832650D01*
X13345134Y-12832650D02*
X13373706Y-12832650D01*
X13373706Y-12832650D02*
X13392753Y-12842174D01*
X13392753Y-12842174D02*
X13402277Y-12851698D01*
X13402277Y-12851698D02*
X13411801Y-12870746D01*
X13411801Y-12870746D02*
X13411801Y-12927888D01*
X13411801Y-12927888D02*
X13402277Y-12946936D01*
X13402277Y-12946936D02*
X13392753Y-12956460D01*
X13392753Y-12956460D02*
X13373706Y-12965984D01*
X13373706Y-12965984D02*
X13345134Y-12965984D01*
X13526087Y-12965984D02*
X13507039Y-12956460D01*
X13507039Y-12956460D02*
X13497515Y-12937412D01*
X13497515Y-12937412D02*
X13497515Y-12765984D01*
X13678468Y-12956460D02*
X13659420Y-12965984D01*
X13659420Y-12965984D02*
X13621325Y-12965984D01*
X13621325Y-12965984D02*
X13602277Y-12956460D01*
X13602277Y-12956460D02*
X13592753Y-12937412D01*
X13592753Y-12937412D02*
X13592753Y-12861222D01*
X13592753Y-12861222D02*
X13602277Y-12842174D01*
X13602277Y-12842174D02*
X13621325Y-12832650D01*
X13621325Y-12832650D02*
X13659420Y-12832650D01*
X13659420Y-12832650D02*
X13678468Y-12842174D01*
X13678468Y-12842174D02*
X13687991Y-12861222D01*
X13687991Y-12861222D02*
X13687991Y-12880269D01*
X13687991Y-12880269D02*
X13592753Y-12899317D01*
X13764182Y-12956460D02*
X13783230Y-12965984D01*
X13783230Y-12965984D02*
X13821325Y-12965984D01*
X13821325Y-12965984D02*
X13840372Y-12956460D01*
X13840372Y-12956460D02*
X13849896Y-12937412D01*
X13849896Y-12937412D02*
X13849896Y-12927888D01*
X13849896Y-12927888D02*
X13840372Y-12908841D01*
X13840372Y-12908841D02*
X13821325Y-12899317D01*
X13821325Y-12899317D02*
X13792753Y-12899317D01*
X13792753Y-12899317D02*
X13773706Y-12889793D01*
X13773706Y-12889793D02*
X13764182Y-12870746D01*
X13764182Y-12870746D02*
X13764182Y-12861222D01*
X13764182Y-12861222D02*
X13773706Y-12842174D01*
X13773706Y-12842174D02*
X13792753Y-12832650D01*
X13792753Y-12832650D02*
X13821325Y-12832650D01*
X13821325Y-12832650D02*
X13840372Y-12842174D01*
X13916563Y-13042174D02*
X13926087Y-13032650D01*
X13926087Y-13032650D02*
X13945134Y-13004079D01*
X13945134Y-13004079D02*
X13954658Y-12985031D01*
X13954658Y-12985031D02*
X13964182Y-12956460D01*
X13964182Y-12956460D02*
X13973706Y-12908841D01*
X13973706Y-12908841D02*
X13973706Y-12870746D01*
X13973706Y-12870746D02*
X13964182Y-12823127D01*
X13964182Y-12823127D02*
X13954658Y-12794555D01*
X13954658Y-12794555D02*
X13945134Y-12775508D01*
X13945134Y-12775508D02*
X13926087Y-12746936D01*
X13926087Y-12746936D02*
X13916563Y-12737412D01*
M02*
